%!PS-Adobe-2.0 EPSF-1.2
%%Creator: MATLAB, The Mathworks, Inc. Version 7.9.0.529 (R2009b). Operating System: Linux 2.6.18-274.el5 #1 SMP Fri Jul 8 17:36:59 EDT 2011 x86_64.
%%Title: ./massSpec.eps
%%CreationDate: 09/16/2011  16:08:31
%%DocumentNeededFonts: Helvetica
%%+ Helvetica-Bold
%%DocumentProcessColors: Cyan Magenta Yellow Black
%%Extensions: CMYK
%%Pages: 1
%%BoundingBox:    22   179   555   616
%%EndComments

%%BeginProlog
% MathWorks dictionary
/MathWorks 160 dict begin
% definition operators
/bdef {bind def} bind def
/ldef {load def} bind def
/xdef {exch def} bdef
/xstore {exch store} bdef
% operator abbreviations
/c  /clip ldef
/cc /concat ldef
/cp /closepath ldef
/gr /grestore ldef
/gs /gsave ldef
/mt /moveto ldef
/np /newpath ldef
/cm /currentmatrix ldef
/sm /setmatrix ldef
/rm /rmoveto ldef
/rl /rlineto ldef
/s {show newpath} bdef
/sc {setcmykcolor} bdef
/sr /setrgbcolor ldef
/sg /setgray ldef
/w /setlinewidth ldef
/j /setlinejoin ldef
/cap /setlinecap ldef
/rc {rectclip} bdef
/rf {rectfill} bdef
% page state control
/pgsv () def
/bpage {/pgsv save def} bdef
/epage {pgsv restore} bdef
/bplot /gsave ldef
/eplot {stroke grestore} bdef
% orientation switch
/portraitMode 0 def /landscapeMode 1 def /rotateMode 2 def
% coordinate system mappings
/dpi2point 0 def
% font control
/FontSize 0 def
/FMS {/FontSize xstore findfont [FontSize 0 0 FontSize neg 0 0]
  makefont setfont} bdef
/reencode {exch dup where {pop load} {pop StandardEncoding} ifelse
  exch dup 3 1 roll findfont dup length dict begin
  { 1 index /FID ne {def}{pop pop} ifelse } forall
  /Encoding exch def currentdict end definefont pop} bdef
/isroman {findfont /CharStrings get /Agrave known} bdef
/FMSR {3 1 roll 1 index dup isroman {reencode} {pop pop} ifelse
  exch FMS} bdef
/csm {1 dpi2point div -1 dpi2point div scale neg translate
 dup landscapeMode eq {pop -90 rotate}
  {rotateMode eq {90 rotate} if} ifelse} bdef
% line types: solid, dotted, dashed, dotdash
/SO { [] 0 setdash } bdef
/DO { [.5 dpi2point mul 4 dpi2point mul] 0 setdash } bdef
/DA { [6 dpi2point mul] 0 setdash } bdef
/DD { [.5 dpi2point mul 4 dpi2point mul 6 dpi2point mul 4
  dpi2point mul] 0 setdash } bdef
% macros for lines and objects
/L {lineto stroke} bdef
/MP {3 1 roll moveto 1 sub {rlineto} repeat} bdef
/AP {{rlineto} repeat} bdef
/PDlw -1 def
/W {/PDlw currentlinewidth def setlinewidth} def
/PP {closepath eofill} bdef
/DP {closepath stroke} bdef
/MR {4 -2 roll moveto dup  0 exch rlineto exch 0 rlineto
  neg 0 exch rlineto closepath} bdef
/FR {MR stroke} bdef
/PR {MR fill} bdef
/L1i {{currentfile picstr readhexstring pop} image} bdef
/tMatrix matrix def
/MakeOval {newpath tMatrix currentmatrix pop translate scale
0 0 1 0 360 arc tMatrix setmatrix} bdef
/FO {MakeOval stroke} bdef
/PO {MakeOval fill} bdef
/PD {currentlinewidth 2 div 0 360 arc fill
   PDlw -1 eq not {PDlw w /PDlw -1 def} if} def
/FA {newpath tMatrix currentmatrix pop translate scale
  0 0 1 5 -2 roll arc tMatrix setmatrix stroke} bdef
/PA {newpath tMatrix currentmatrix pop	translate 0 0 moveto scale
  0 0 1 5 -2 roll arc closepath tMatrix setmatrix fill} bdef
/FAn {newpath tMatrix currentmatrix pop translate scale
  0 0 1 5 -2 roll arcn tMatrix setmatrix stroke} bdef
/PAn {newpath tMatrix currentmatrix pop translate 0 0 moveto scale
  0 0 1 5 -2 roll arcn closepath tMatrix setmatrix fill} bdef
/vradius 0 def /hradius 0 def /lry 0 def
/lrx 0 def /uly 0 def /ulx 0 def /rad 0 def
/MRR {/vradius xdef /hradius xdef /lry xdef /lrx xdef /uly xdef
  /ulx xdef newpath tMatrix currentmatrix pop ulx hradius add uly
  vradius add translate hradius vradius scale 0 0 1 180 270 arc 
  tMatrix setmatrix lrx hradius sub uly vradius add translate
  hradius vradius scale 0 0 1 270 360 arc tMatrix setmatrix
  lrx hradius sub lry vradius sub translate hradius vradius scale
  0 0 1 0 90 arc tMatrix setmatrix ulx hradius add lry vradius sub
  translate hradius vradius scale 0 0 1 90 180 arc tMatrix setmatrix
  closepath} bdef
/FRR {MRR stroke } bdef
/PRR {MRR fill } bdef
/MlrRR {/lry xdef /lrx xdef /uly xdef /ulx xdef /rad lry uly sub 2 div def
  newpath tMatrix currentmatrix pop ulx rad add uly rad add translate
  rad rad scale 0 0 1 90 270 arc tMatrix setmatrix lrx rad sub lry rad
  sub translate rad rad scale 0 0 1 270 90 arc tMatrix setmatrix
  closepath} bdef
/FlrRR {MlrRR stroke } bdef
/PlrRR {MlrRR fill } bdef
/MtbRR {/lry xdef /lrx xdef /uly xdef /ulx xdef /rad lrx ulx sub 2 div def
  newpath tMatrix currentmatrix pop ulx rad add uly rad add translate
  rad rad scale 0 0 1 180 360 arc tMatrix setmatrix lrx rad sub lry rad
  sub translate rad rad scale 0 0 1 0 180 arc tMatrix setmatrix
  closepath} bdef
/FtbRR {MtbRR stroke } bdef
/PtbRR {MtbRR fill } bdef
/stri 6 array def /dtri 6 array def
/smat 6 array def /dmat 6 array def
/tmat1 6 array def /tmat2 6 array def /dif 3 array def
/asub {/ind2 exch def /ind1 exch def dup dup
  ind1 get exch ind2 get sub exch } bdef
/tri_to_matrix {
  2 0 asub 3 1 asub 4 0 asub 5 1 asub
  dup 0 get exch 1 get 7 -1 roll astore } bdef
/compute_transform {
  dmat dtri tri_to_matrix tmat1 invertmatrix 
  smat stri tri_to_matrix tmat2 concatmatrix } bdef
/ds {stri astore pop} bdef
/dt {dtri astore pop} bdef
/db {2 copy /cols xdef /rows xdef mul dup 3 mul string
  currentfile exch readhexstring pop
  dup 0 3 index getinterval /rbmap xdef
  dup 2 index dup getinterval /gbmap xdef
  1 index dup 2 mul exch getinterval /bbmap xdef pop pop}bdef
/it {gs np dtri aload pop moveto lineto lineto cp c
  cols rows 8 compute_transform 
  rbmap gbmap bbmap true 3 colorimage gr}bdef
/il {newpath moveto lineto stroke}bdef
currentdict end def
%%EndProlog

%%BeginSetup
MathWorks begin

0 cap

end
%%EndSetup

%%Page: 1 1
%%BeginPageSetup
%%PageBoundingBox:    22   179   555   616
MathWorks begin
bpage
%%EndPageSetup

%%BeginObject: obj1
bplot

/dpi2point 12 def
portraitMode 0216 7344 csm

   54   -48  6397  5233 MR c np
85 dict begin %Colortable dictionary
/c0 { 0.000000 0.000000 0.000000 sr} bdef
/c1 { 1.000000 1.000000 1.000000 sr} bdef
/c2 { 0.900000 0.000000 0.000000 sr} bdef
/c3 { 0.000000 0.820000 0.000000 sr} bdef
/c4 { 0.000000 0.000000 0.800000 sr} bdef
/c5 { 0.910000 0.820000 0.320000 sr} bdef
/c6 { 1.000000 0.260000 0.820000 sr} bdef
/c7 { 0.000000 0.820000 0.820000 sr} bdef
c0
1 j
1 sg
   0    0 6918 5186 PR
36 w
0 4226 5361 0 0 -4226 899 4615 4 MP
PP
-5361 0 0 4226 5361 0 0 -4226 899 4615 5 MP stroke
24 w
DO
0 sg
1937 4615 mt 1937  389 L
1937  389 mt 1937  389 L
3049 4615 mt 3049  389 L
3049  389 mt 3049  389 L
4161 4615 mt 4161  389 L
4161  389 mt 4161  389 L
5274 4615 mt 5274  389 L
5274  389 mt 5274  389 L
 899 4542 mt 6260 4542 L
6260 4542 mt 6260 4542 L
 899 3900 mt 6260 3900 L
6260 3900 mt 6260 3900 L
 899 3258 mt 6260 3258 L
6260 3258 mt 6260 3258 L
 899 2616 mt 6260 2616 L
6260 2616 mt 6260 2616 L
 899 1974 mt 6260 1974 L
6260 1974 mt 6260 1974 L
 899 1332 mt 6260 1332 L
6260 1332 mt 6260 1332 L
 899  690 mt 6260  690 L
6260  690 mt 6260  690 L
SO
36 w
 899 4615 mt 6260 4615 L
 899  389 mt 6260  389 L
 899 4615 mt  899  389 L
6260 4615 mt 6260  389 L
 899 4615 mt 6260 4615 L
 899 4615 mt  899  389 L
1937 4615 mt 1937 4668 L
1937  389 mt 1937  335 L
%%IncludeResource: font Helvetica
/Helvetica /ISOLatin1Encoding 216 FMSR

1817 4904 mt 
(20) s
3049 4615 mt 3049 4668 L
3049  389 mt 3049  335 L
2929 4904 mt 
(40) s
4161 4615 mt 4161 4668 L
4161  389 mt 4161  335 L
4041 4904 mt 
(60) s
5274 4615 mt 5274 4668 L
5274  389 mt 5274  335 L
5154 4904 mt 
(80) s
 899 4542 mt  845 4542 L
6260 4542 mt 6313 4542 L
 690 4622 mt 
(0) s
 899 3900 mt  845 3900 L
6260 3900 mt 6313 3900 L
 390 3980 mt 
(0.05) s
 899 3258 mt  845 3258 L
6260 3258 mt 6313 3258 L
 510 3338 mt 
(0.1) s
 899 2616 mt  845 2616 L
6260 2616 mt 6313 2616 L
 390 2696 mt 
(0.15) s
 899 1974 mt  845 1974 L
6260 1974 mt 6313 1974 L
 510 2054 mt 
(0.2) s
 899 1332 mt  845 1332 L
6260 1332 mt 6313 1332 L
 390 1412 mt 
(0.25) s
 899  690 mt  845  690 L
6260  690 mt 6313  690 L
 510  770 mt 
(0.3) s
 899 4615 mt 6260 4615 L
 899  389 mt 6260  389 L
 899 4615 mt  899  389 L
6260 4615 mt 6260  389 L
gs 899 389 5362 4227 MR c np
6 w
/c8 { 0.000000 0.000000 1.000000 sr} bdef
c8
1 0 1 0 1 0 1 0 1 0 1 0 1 0 1 0 
1 0 1 0 1 0 1 0 1 0 1 0 1 0 1 0 
1 0 1 0 1 0 1 0 1 0 1 0 1 0 1 0 
1 0 1 0 1 0 1 0 1 0 1 0 1 0 1 0 
1 0 1 0 1 0 1 0 1 0 1 0 1 0 1 0 
1 0 1 0 1 0 1 0 1 0 1 0 1 0 1 0 
1 0 1 0 1 0 1 0 1 0 1 0 1 0 1 0 
1 0 1 0 1 0 1 0 1 0 1 0 1 0 1 0 
1 0 1 0 1 0 1 0 1 0 1 0 1 0 1 0 
1 0 1 0 1 0 1 0 1 0 1 0 0 2 1 1 
0 1 1 1 0 -3 1 -1 1 -1 1 0 1 0 1 0 
1 0 1 0 1 0 1 0 1 0 1 0 1 0 1 0 
1 0 1 0 1 0 6040 4542 100 MP stroke
1 0 1 0 1 0 1 0 1 0 1 0 1 0 1 0 
1 0 1 0 1 0 1 0 1 -1 1 1 1 0 1 0 
1 0 1 0 1 0 1 1 1 0 1 0 1 -1 1 0 
1 0 0 3 1 2 0 -1 1 -2 1 -4 -1 0 2 2 
1 0 1 0 1 1 1 0 1 0 1 0 -1 0 2 2 
0 -5 0 5 1 6 0 15 1 6 0 49 1 45 0 83 
1 0 0 -145 1 -36 0 -17 1 0 0 -6 2 -2 1 0 
-1 0 2 -2 1 -1 1 1 1 -1 1 0 1 -1 1 0 
1 1 1 1 1 1 1 1 1 -1 1 0 1 1 1 1 
0 2 0 -3 1 0 0 -2 1 -1 0 -1 1 -1 1 -1 
1 0 1 1 1 -1 1 -1 1 1 1 0 0 3 1 1 
0 1 1 5 1 -1 1 -1 1 0 0 2 1 1 1 2 
-1 0 2 -2 0 -3 5962 4539 100 MP stroke
1 -1 0 -2 1 -1 0 -3 1 -1 0 2 1 -5 0 -16 
1 17 0 -4 0 6 1 -1 0 -3 1 -2 0 2 1 1 
0 3 1 3 0 13 1 5 0 2 0 -1 1 -3 0 -3 
0 3 1 1 0 -15 1 -16 0 -30 1 -9 0 105 1 119 
0 247 1 86 0 965 1 700 0 892 1 -242 0 -2157 1 -397 
0 -170 1 -7 0 -76 1 4 0 8 1 -8 0 -10 0 2 
1 1 0 -4 1 -2 0 -7 1 -1 1 -1 1 0 1 1 
1 1 1 -1 -1 0 2 6 0 2 1 1 0 2 1 1 
1 0 1 1 1 0 -1 0 2 2 1 0 1 -1 0 -2 
1 -2 0 -3 1 -7 1 -1 1 1 1 0 -1 0 2 -2 
1 0 1 0 0 2 1 1 0 11 1 3 0 2 1 1 
1 1 1 -1 1 0 0 2 1 1 1 1 0 -3 1 -2 
0 -4 1 -2 0 -2 5905 4540 100 MP stroke
1 -2 0 -6 1 -1 0 5 1 -6 0 -24 1 -6 0 24 
1 7 0 1 0 -3 1 -4 0 -1 0 6 1 4 0 7 
1 3 0 17 1 6 0 3 1 -4 0 -7 0 2 1 5 
0 3 1 0 0 38 1 32 0 206 1 232 0 792 1 164 
0 702 1 694 0 1149 0 -144 1 -721 0 -2002 1 -651 0 -381 
1 -30 0 -81 1 -5 0 12 0 -9 1 -11 0 -7 0 1 
1 3 0 -6 1 -2 0 -1 2 -2 0 -1 0 1 1 -3 
1 0 1 -1 1 -1 -1 0 2 0 1 0 1 0 1 0 
1 0 1 0 1 0 1 0 1 0 1 0 1 1 1 -1 
1 1 1 0 -1 0 2 0 1 0 -1 0 2 0 1 0 
1 0 1 0 1 0 1 0 1 0 1 0 1 0 1 0 
1 0 1 0 1 0 1 0 1 0 1 -1 1 1 1 0 
1 0 1 1 1 0 5839 4542 100 MP stroke
-1 0 2 2 0 1 1 1 0 3 1 2 0 10 1 4 
0 9 1 4 0 23 1 13 0 14 1 -7 0 -55 1 -11 
0 -8 1 -2 1 -1 1 -1 0 -1 0 1 1 -1 1 0 
-1 0 2 0 1 0 1 -1 1 0 1 1 1 0 1 -1 
1 1 1 0 1 0 1 0 1 0 1 0 1 0 1 0 
1 0 1 0 1 -1 1 0 1 0 1 1 1 0 1 -1 
1 1 1 0 1 0 1 0 1 0 1 0 1 0 1 0 
1 0 1 0 1 0 1 0 0 -1 0 2 2 0 1 -3 
-1 0 2 2 1 1 1 0 0 2 1 1 0 1 0 -2 
1 1 0 4 1 3 0 13 1 5 0 11 1 8 0 22 
1 2 0 -1 0 3 1 6 0 28 1 25 0 47 1 -24 
0 -84 1 -34 0 -28 1 -1 0 -5 1 -1 1 -1 1 -1 
1 0 1 -1 1 0 5768 4542 100 MP stroke
1 0 1 0 1 0 1 0 1 0 1 0 1 0 1 0 
1 0 1 -1 1 0 1 0 1 0 1 0 1 1 1 0 
1 0 1 0 1 0 1 0 1 0 1 0 1 0 1 0 
1 0 1 0 1 0 1 0 1 0 1 0 1 0 1 0 
1 0 1 0 1 0 1 0 1 0 1 0 1 0 1 0 
1 0 1 0 1 0 1 0 1 1 1 0 -1 0 2 2 
1 1 0 -2 1 -1 1 -1 1 0 1 0 1 0 1 0 
1 0 1 0 1 0 1 0 1 0 1 0 1 0 1 0 
1 0 1 0 1 0 1 0 1 0 1 0 1 0 1 0 
1 0 1 0 1 0 1 0 1 0 1 0 1 0 1 0 
1 0 1 0 1 0 1 0 1 0 1 0 1 0 1 0 
1 0 1 0 1 0 1 0 1 0 1 0 -1 0 2 0 
1 0 1 0 1 0 5672 4542 100 MP stroke
1 1 1 0 1 0 1 0 0 1 2 2 0 3 1 3 
0 13 1 -1 0 -14 1 -4 0 -2 1 -1 1 -1 1 0 
1 0 1 0 1 0 1 0 1 0 1 0 1 0 1 0 
1 0 1 0 1 0 1 0 1 0 1 0 1 0 1 0 
1 0 1 0 1 0 1 0 1 0 1 0 1 0 1 0 
1 0 1 0 1 0 1 0 1 0 1 0 1 0 1 0 
1 0 1 0 1 0 1 0 1 0 1 0 1 0 1 -1 
1 0 1 1 1 0 1 0 1 1 1 0 1 0 1 1 
0 1 1 1 0 4 1 3 0 5 1 5 0 15 1 0 
0 -23 1 -6 0 -5 1 -1 1 -1 1 0 1 0 1 0 
1 0 1 0 1 0 1 0 1 0 1 0 1 0 1 0 
1 0 1 0 1 0 1 0 1 0 1 0 1 0 1 0 
1 0 1 0 1 0 5583 4542 100 MP stroke
1 0 1 0 1 0 1 0 1 0 1 0 1 0 1 0 
1 0 1 0 1 0 1 0 1 0 1 0 1 0 1 0 
1 0 1 0 1 0 1 0 1 0 1 0 1 0 1 1 
1 0 1 0 1 1 0 1 1 1 0 3 1 2 0 5 
1 3 0 7 1 0 0 -12 1 -5 0 -5 1 -1 1 -1 
1 0 1 0 1 0 1 0 1 0 1 0 1 0 1 0 
1 0 1 0 1 0 1 0 1 0 1 0 1 0 1 0 
1 0 1 0 1 0 1 0 1 0 1 0 1 0 1 0 
1 0 1 0 1 0 1 0 1 0 1 0 1 0 1 0 
1 0 1 0 1 0 1 0 1 0 1 0 1 -1 1 1 
1 0 1 0 1 0 1 0 1 0 1 0 1 1 1 1 
0 5 1 5 0 12 1 -4 0 -11 1 -3 0 -2 1 1 
0 2 1 1 0 -4 5496 4538 100 MP stroke
1 -1 0 -2 1 -1 1 0 1 0 1 0 1 0 1 0 
1 0 1 0 1 0 1 0 1 0 1 0 1 0 1 0 
1 0 1 0 1 0 1 0 1 0 1 0 1 0 1 0 
1 0 1 0 1 0 1 0 1 0 1 0 1 0 1 0 
1 0 1 0 1 0 1 0 1 0 1 0 1 0 1 0 
1 0 1 -1 1 0 1 1 -1 0 2 0 1 0 1 0 
-1 0 2 0 1 0 1 1 0 2 1 1 0 6 1 1 
0 4 1 6 0 23 1 -2 0 -32 1 -5 0 -3 1 -1 
1 -1 1 0 1 0 1 0 1 0 1 0 1 0 1 0 
1 0 1 0 1 0 1 0 1 0 1 0 -1 0 2 0 
1 0 1 0 1 0 1 0 1 0 1 0 1 0 1 0 
1 0 1 0 1 0 1 0 1 0 1 0 1 0 1 0 
1 0 1 0 1 0 5407 4542 100 MP stroke
1 0 1 0 1 0 1 0 1 0 1 0 1 0 1 0 
1 0 1 0 1 0 1 0 1 0 1 0 1 0 1 0 
1 0 1 0 1 0 1 0 1 0 1 0 1 0 1 0 
1 0 1 0 1 0 1 0 1 0 1 0 1 0 1 0 
1 0 1 0 1 0 1 0 1 0 1 0 1 0 1 0 
1 0 1 0 1 0 1 0 1 0 1 0 1 0 1 0 
1 0 1 0 1 0 1 0 1 0 1 0 1 0 1 0 
1 0 1 0 1 0 1 0 1 0 1 0 1 0 1 0 
1 0 1 0 1 0 1 0 1 0 1 0 1 0 1 0 
1 0 1 0 1 0 1 0 1 0 1 0 1 0 1 0 
1 0 1 0 1 0 1 0 1 0 1 0 1 0 1 0 
1 0 1 0 1 0 1 0 1 0 1 0 1 0 1 0 
1 0 1 0 1 0 5308 4542 100 MP stroke
1 0 1 0 1 0 1 0 1 0 1 0 1 0 1 0 
1 0 1 0 1 0 1 0 1 0 1 0 1 0 1 0 
1 0 1 0 1 0 1 0 1 0 1 0 1 0 1 0 
1 0 1 0 1 0 1 0 1 0 1 0 1 0 1 0 
1 0 1 0 1 0 1 0 1 0 1 0 1 0 1 0 
1 0 1 0 1 0 1 0 1 0 1 0 1 0 1 0 
1 0 1 0 1 0 1 0 1 0 1 0 1 0 1 0 
1 0 1 0 1 0 1 0 1 0 1 0 1 0 1 0 
1 0 1 0 1 0 1 0 1 0 1 0 1 0 1 0 
1 0 1 0 1 0 1 0 1 0 1 0 1 0 1 0 
1 0 1 0 1 0 1 0 1 0 1 0 1 0 1 0 
1 0 1 0 1 0 1 0 1 0 1 0 1 0 1 0 
1 0 1 0 1 0 5209 4542 100 MP stroke
1 0 1 0 1 0 1 0 1 0 1 0 1 0 1 0 
1 0 1 0 1 0 1 0 1 0 1 0 1 0 1 0 
1 0 1 0 1 0 1 0 1 0 1 0 1 0 1 0 
1 0 1 0 1 0 1 0 1 0 1 0 1 0 1 0 
1 0 1 0 1 0 1 0 1 0 1 0 1 0 1 0 
1 0 1 1 1 0 0 2 1 1 0 -1 1 -1 0 -1 
1 -1 1 0 1 0 1 0 1 0 1 0 1 0 1 0 
1 0 1 0 1 0 1 0 1 0 1 -1 1 1 1 0 
1 0 1 0 1 0 -1 0 2 0 1 0 1 0 1 0 
1 0 1 0 1 0 1 -1 1 0 1 1 1 0 1 0 
1 0 1 0 1 1 1 0 1 0 1 1 1 0 1 0 
1 -1 1 0 1 1 1 0 1 -1 1 0 1 0 1 0 
1 -1 1 1 1 -1 5114 4542 100 MP stroke
0 1 1 -1 1 1 0 3 1 3 0 7 1 5 0 16 
1 7 0 3 0 -12 1 -10 0 -16 1 -2 0 -3 1 -1 
1 -1 1 0 1 0 1 0 1 0 1 0 1 0 1 0 
1 0 -1 0 2 0 1 0 1 -1 1 0 1 0 1 1 
1 0 1 0 1 -1 1 1 1 -1 1 1 1 0 1 -1 
1 0 1 1 1 0 1 0 1 -1 1 1 1 0 1 0 
1 0 1 0 1 0 1 0 1 0 1 0 1 0 1 0 
1 0 1 0 1 0 1 0 1 0 1 0 1 0 1 0 
1 0 1 0 1 0 -1 0 2 2 0 3 1 2 0 7 
1 2 0 -3 1 -3 0 -7 1 -1 0 -1 1 -1 1 0 
1 0 1 0 1 0 1 0 1 0 1 0 1 0 1 -1 
1 1 1 -1 1 1 1 -1 1 1 1 0 1 0 -1 0 
2 0 1 -1 1 0 5031 4543 100 MP stroke
1 1 1 -1 1 0 1 0 1 0 1 0 1 0 1 1 
1 -1 1 0 1 1 1 0 1 0 1 0 1 0 1 0 
1 0 -1 0 2 0 1 0 1 0 1 0 1 0 1 0 
1 -1 1 1 1 0 1 0 1 0 1 0 1 0 0 1 
2 2 0 5 1 2 0 12 1 5 0 3 0 -4 1 -6 
0 -13 1 -3 0 -3 1 -1 1 0 1 0 1 0 1 0 
1 0 1 0 1 0 1 0 1 0 -1 0 2 0 1 0 
-1 0 2 0 1 0 1 0 1 0 1 0 1 0 1 0 
1 0 1 0 1 0 1 -1 1 1 1 -1 1 0 1 0 
1 0 1 0 1 1 1 0 1 0 1 0 1 0 1 0 
1 0 1 0 1 0 1 0 1 0 1 0 1 0 1 0 
1 -1 1 1 1 0 1 0 1 0 1 0 0 1 2 2 
0 3 1 3 0 10 4943 4523 100 MP stroke
1 4 0 16 1 6 0 3 0 -6 1 -10 0 -25 1 -3 
0 -2 2 -2 1 0 1 0 1 0 1 0 1 0 1 0 
1 0 1 0 1 0 1 0 1 0 1 0 1 0 1 0 
1 0 1 0 1 0 1 0 1 0 1 0 1 0 1 0 
1 0 1 0 1 0 1 0 1 0 1 0 1 0 1 0 
1 0 1 0 1 0 1 0 1 0 1 0 1 0 1 0 
1 0 1 0 1 0 1 -1 1 1 1 0 1 0 1 0 
1 0 1 0 0 1 2 2 0 2 1 3 1 1 0 1 
0 -1 1 -1 0 -5 1 -1 0 -1 1 -1 1 0 1 0 
1 0 1 0 1 0 1 0 1 0 1 0 1 0 1 0 
1 0 1 0 1 0 1 0 1 0 1 0 1 0 1 0 
1 0 1 0 1 0 1 0 1 0 1 0 1 0 1 0 
1 0 1 0 1 0 4853 4542 100 MP stroke
1 0 1 0 1 0 1 0 1 0 1 0 1 0 1 0 
1 0 1 0 1 0 1 0 1 0 1 0 1 0 1 0 
1 0 1 0 1 0 1 0 1 0 1 0 1 0 1 1 
1 0 1 -1 1 0 1 0 1 0 1 0 1 0 1 0 
1 0 1 0 1 0 1 0 1 0 1 0 1 0 1 0 
1 0 1 0 1 0 1 0 1 0 1 0 1 0 1 0 
1 0 1 0 1 0 1 0 1 0 1 0 1 0 1 0 
1 0 1 0 1 0 1 0 1 0 1 0 1 0 1 0 
1 0 1 0 1 0 1 0 1 0 1 0 1 0 1 0 
1 0 1 0 1 0 1 0 1 0 1 0 1 0 1 0 
1 0 1 0 1 0 1 0 1 0 1 0 1 0 1 0 
1 0 1 0 1 0 1 0 1 0 1 0 1 0 1 0 
1 0 1 0 1 0 4754 4542 100 MP stroke
1 0 1 0 1 0 1 0 1 0 1 0 1 0 1 0 
1 0 1 0 1 0 1 0 1 0 1 0 1 0 1 0 
1 0 1 0 1 0 1 0 1 0 1 0 1 0 1 0 
1 0 1 0 1 0 1 0 1 0 1 0 1 0 1 0 
1 0 1 0 1 0 1 0 1 0 1 0 1 0 1 0 
1 0 1 0 1 0 1 0 1 0 1 0 1 0 1 0 
1 0 1 0 1 0 1 0 1 0 1 0 1 0 1 0 
1 0 1 0 1 0 1 0 1 0 1 0 1 0 1 0 
1 0 1 0 1 0 1 0 1 0 1 0 1 0 1 0 
1 0 1 0 1 0 1 0 1 0 1 0 1 0 1 0 
1 0 1 0 1 0 1 0 1 0 1 0 1 0 1 0 
1 1 0 1 1 1 0 1 0 -1 1 -1 0 -1 1 -1 
1 0 1 0 1 0 4659 4542 100 MP stroke
1 0 1 0 1 0 1 0 1 0 1 0 1 0 1 0 
1 0 1 0 1 0 1 0 1 0 1 0 1 0 1 0 
1 0 1 0 1 0 1 0 1 0 1 0 1 0 1 0 
1 0 1 0 1 0 1 0 1 0 1 0 1 0 1 0 
1 0 1 0 1 0 1 0 1 0 1 0 1 0 1 0 
1 0 1 0 1 0 1 0 1 0 1 0 1 0 1 0 
1 0 1 0 1 0 1 0 1 0 1 0 1 0 1 0 
1 0 1 0 1 0 1 0 1 0 1 0 1 0 1 0 
1 0 1 0 1 0 1 0 1 0 1 0 1 0 1 0 
1 0 1 0 1 0 1 0 1 0 1 0 1 0 1 0 
1 0 1 0 1 0 1 0 1 0 1 0 1 0 1 0 
1 0 1 0 1 0 1 0 1 0 1 0 1 0 1 0 
1 0 1 0 1 0 4560 4542 100 MP stroke
1 0 1 0 1 0 1 0 1 1 0 3 1 2 0 3 
0 -1 1 -2 0 -5 1 -1 1 0 1 0 1 0 1 0 
1 0 1 0 1 0 1 0 1 0 1 0 1 0 1 0 
1 0 1 0 1 0 1 -1 1 1 1 0 1 0 1 0 
1 0 1 0 1 0 1 0 1 0 1 0 1 0 1 0 
1 0 1 0 1 0 1 0 1 1 1 -1 1 1 1 0 
1 0 1 0 1 -1 1 0 1 0 1 0 1 0 1 -1 
1 0 1 1 1 -1 1 1 1 0 1 1 1 -1 0 2 
1 1 0 4 1 4 0 18 1 12 0 30 1 -6 0 -49 
1 -9 0 -5 1 -1 1 -1 1 -1 1 0 1 0 1 1 
1 -1 1 0 1 0 1 0 1 0 1 0 1 0 1 0 
1 0 1 0 1 -1 1 0 1 0 1 1 1 0 1 0 
1 0 1 0 1 1 4471 4542 100 MP stroke
1 1 1 0 1 1 1 1 0 2 1 -1 1 1 0 2 
1 1 0 1 2 0 0 2 1 1 1 1 0 -2 2 0 
1 2 -1 0 2 -2 0 -1 2 -3 1 -1 0 -4 1 -2 
0 -3 1 1 0 4 0 -2 2 0 0 4 1 1 1 -1 
-1 0 2 2 0 -7 1 -2 0 -4 0 2 1 9 0 65 
1 13 0 124 1 123 0 247 1 -84 0 -393 1 -52 0 -25 
1 -9 0 -9 0 1 1 -2 0 -1 2 -2 1 0 1 0 
1 -1 1 0 1 0 1 0 1 0 1 0 1 0 1 0 
1 0 1 -1 1 0 1 0 1 0 1 1 1 0 -1 0 
2 0 1 0 1 0 1 0 1 0 1 0 -1 0 2 0 
1 1 1 0 1 0 1 0 1 0 1 0 1 0 1 1 
1 0 1 -1 1 0 1 0 1 0 1 -1 1 1 1 0 
-1 0 2 -2 1 1 4394 4543 100 MP stroke
1 0 0 1 2 0 1 0 1 0 0 3 1 -2 0 12 
1 4 0 20 1 17 0 39 1 -9 0 -58 1 -11 0 -10 
1 -2 0 -2 1 -1 1 -1 1 0 1 0 1 0 1 0 
1 0 1 0 1 1 1 -1 -1 0 2 0 1 -1 1 1 
1 0 1 -1 1 0 1 1 1 -1 1 1 -1 0 2 0 
1 0 1 0 1 1 1 0 1 0 1 0 1 0 1 0 
1 1 1 1 1 -1 1 1 0 1 1 1 1 -1 1 1 
0 -2 1 1 1 -1 1 0 1 -1 -1 0 2 0 1 -1 
0 2 1 -2 0 2 1 -2 0 -3 1 -1 0 3 1 1 
1 1 0 1 0 -1 1 -1 0 2 1 1 0 3 1 1 
1 1 0 5 1 5 0 47 1 19 0 71 1 54 0 217 
1 -50 0 -258 1 -46 0 -42 1 -10 0 -14 1 -1 0 -4 
2 0 1 -1 1 0 4322 4542 100 MP stroke
1 0 1 -1 -1 0 2 0 1 0 1 0 -1 0 2 0 
1 0 1 -1 1 0 1 0 1 0 1 0 1 0 1 0 
1 0 1 1 1 0 1 -1 1 1 1 0 1 0 1 0 
1 0 1 0 1 1 1 0 1 0 1 1 1 0 1 -1 
1 0 1 0 1 1 1 0 -1 0 2 -2 1 0 -1 0 
2 2 1 1 1 -5 -1 0 2 2 1 1 1 1 1 2 
-1 0 2 0 0 3 1 1 0 3 1 3 0 33 1 10 
0 37 1 24 0 72 1 -8 0 -104 1 -30 0 -37 1 -3 
0 -4 1 -1 1 -1 1 0 1 -1 1 0 1 -1 1 1 
1 0 1 0 1 -1 1 0 1 0 1 0 -1 0 2 0 
1 1 1 -1 1 0 1 0 1 0 1 0 1 0 -1 0 
2 0 1 0 1 0 1 0 1 1 1 -1 1 0 1 0 
1 1 1 -1 -1 0 4241 4543 100 MP stroke
2 0 1 1 1 0 -1 0 2 0 1 0 1 0 1 0 
1 0 1 0 1 0 1 -1 1 1 1 -1 1 0 1 1 
1 1 0 1 2 2 0 3 1 1 0 4 1 3 0 12 
1 4 0 13 1 8 0 38 1 -6 0 -50 1 -12 0 -15 
1 -2 0 -2 1 -1 1 -1 1 0 1 -1 1 -1 1 1 
1 0 1 0 1 0 1 -1 1 1 1 0 -1 0 2 0 
1 0 1 0 1 0 1 -1 1 0 1 1 1 -1 1 1 
1 0 1 0 -1 0 2 0 1 0 1 -1 1 1 1 0 
1 0 1 0 1 0 1 0 1 0 1 0 1 -1 1 1 
1 1 1 -1 1 0 1 0 1 0 1 0 1 0 1 0 
1 0 1 0 1 0 1 1 1 0 0 1 2 2 1 1 
0 5 1 1 1 1 0 -7 1 -1 0 -2 1 -1 1 -1 
1 1 1 -1 1 0 4155 4542 100 MP stroke
-1 0 2 0 1 0 1 0 1 0 1 0 1 0 1 0 
1 0 1 0 -1 0 2 0 1 0 1 0 1 -1 1 1 
1 0 1 -1 1 0 1 0 1 0 1 1 1 0 1 0 
1 0 1 -1 0 1 0 -1 1 1 1 0 1 0 1 -1 
-1 0 2 0 1 1 1 0 1 -1 1 1 1 0 1 0 
1 0 -1 0 2 0 1 0 1 0 1 0 1 0 1 0 
1 -1 1 1 1 0 1 1 1 -1 1 0 1 0 1 0 
1 0 1 0 1 0 1 0 1 -1 1 1 1 0 1 0 
1 0 1 0 1 0 1 0 -1 0 2 0 1 0 1 0 
1 0 1 0 1 0 1 -1 1 1 1 0 1 0 1 0 
1 0 1 0 1 0 1 -1 1 1 1 0 1 0 1 0 
1 0 1 0 -1 0 2 0 1 0 1 0 1 0 1 0 
1 0 1 0 1 0 4064 4542 100 MP stroke
1 0 1 0 1 0 1 0 1 0 1 0 1 0 1 0 
1 0 1 0 1 0 1 1 1 -1 1 0 1 0 1 0 
1 0 1 0 1 0 1 0 1 0 1 0 -1 0 2 0 
1 0 1 0 1 0 1 -1 1 1 1 0 1 0 1 0 
1 0 -1 0 2 0 1 0 1 0 1 -1 1 1 1 0 
1 -1 1 1 1 0 -1 0 2 0 1 0 1 -1 1 1 
1 -1 1 1 1 0 1 0 1 0 1 0 1 0 1 0 
1 0 1 0 1 0 1 0 1 0 1 0 1 0 1 0 
1 0 1 0 1 0 1 0 1 1 1 1 0 4 1 -1 
0 -4 1 -1 1 0 1 0 1 0 1 -1 1 1 1 0 
1 0 1 0 1 0 1 0 1 0 1 0 1 0 1 0 
1 0 1 0 1 0 1 0 1 0 1 0 1 0 1 0 
1 0 1 0 -1 0 3972 4542 100 MP stroke
2 0 1 0 1 0 1 0 1 0 1 0 1 0 1 -1 
1 1 1 0 1 0 1 0 1 0 1 0 1 0 1 0 
-1 0 2 0 1 0 1 0 1 0 1 0 1 -1 1 1 
1 0 1 0 1 0 1 0 1 1 0 2 1 1 0 -2 
1 -1 0 2 1 1 0 -4 2 0 1 0 1 0 1 0 
1 0 1 -1 1 1 1 -1 1 1 1 -1 1 1 1 0 
1 0 1 0 1 0 1 0 1 0 1 -1 1 1 1 0 
1 -1 1 1 1 0 1 0 1 0 1 0 1 0 1 0 
1 0 1 0 1 0 1 0 1 0 1 0 1 0 1 0 
1 0 1 0 1 0 1 0 1 0 1 0 1 0 1 0 
1 -1 -1 0 2 0 1 1 1 0 1 0 1 0 1 1 
0 3 1 1 0 20 1 -1 0 -17 1 -4 0 12 1 -1 
0 -11 1 -2 1 -1 3882 4542 100 MP stroke
1 0 1 0 1 -1 1 1 1 0 1 0 1 0 1 0 
1 0 0 -1 0 1 2 0 1 0 1 0 1 0 1 0 
1 0 1 -1 1 1 1 0 1 0 1 0 1 0 1 0 
1 0 1 0 1 0 1 0 1 0 1 0 1 0 1 0 
1 0 1 0 1 0 1 0 1 0 -1 0 2 0 1 0 
1 0 1 0 1 0 1 0 1 0 1 0 1 0 1 0 
1 0 1 0 1 0 1 0 1 0 0 2 1 1 0 -1 
1 -1 1 -1 1 0 1 0 1 0 1 0 1 0 1 0 
1 0 1 0 1 0 -1 0 2 0 1 0 1 0 1 0 
1 -1 1 0 1 1 1 -1 1 1 1 0 0 -1 0 1 
2 0 1 -1 1 1 1 0 1 0 -1 0 2 0 1 0 
1 0 1 0 1 0 1 0 1 0 1 0 1 0 1 0 
1 0 1 0 1 0 3790 4542 100 MP stroke
1 0 1 0 1 0 1 0 1 0 1 0 1 -1 1 1 
1 0 1 0 1 0 1 0 1 0 0 2 1 1 0 5 
1 2 0 38 1 3 0 -31 1 -11 0 -7 1 -1 1 -1 
1 0 1 0 1 0 1 -1 1 0 1 0 1 1 1 -1 
1 1 1 -1 1 1 1 0 1 -1 1 0 1 0 1 0 
1 0 1 0 1 1 1 0 1 0 1 0 1 0 1 0 
1 0 1 0 1 0 1 0 1 0 1 0 1 0 1 0 
1 0 1 0 1 0 1 0 1 0 1 0 -1 0 2 0 
1 0 -1 0 2 0 1 -1 1 1 0 -1 2 0 1 1 
-1 0 2 0 1 0 1 0 -1 0 2 0 0 3 0 -2 
1 2 0 12 1 3 0 69 1 13 0 -43 1 -22 0 -27 
1 -1 0 -6 2 0 1 -1 1 0 1 -1 1 1 1 -1 
1 1 1 -1 1 0 3706 4543 100 MP stroke
1 0 1 0 1 0 1 0 1 0 1 0 1 0 1 0 
1 -1 1 1 1 0 1 0 1 0 1 1 1 0 1 0 
-1 0 2 2 0 -1 0 1 2 0 1 0 1 -1 1 1 
1 -1 1 -1 1 0 1 1 1 1 1 0 -1 0 2 0 
1 -1 1 -1 0 1 1 1 0 -2 1 3 0 -1 0 2 
1 -1 0 -4 1 -2 0 -1 0 2 1 1 0 2 2 2 
0 -3 0 3 1 1 1 0 0 -2 1 -1 0 -3 0 5 
1 11 0 66 1 16 0 216 1 96 0 50 0 -218 1 -102 
0 -111 1 -6 0 -14 1 -1 0 -4 1 -1 1 0 1 -1 
1 0 1 0 1 -1 1 0 1 -1 1 1 1 -1 1 0 
1 0 1 0 1 0 1 0 1 0 1 0 1 0 1 0 
1 1 1 0 1 0 1 0 1 1 1 -1 1 1 1 0 
1 0 1 -1 1 0 3629 4543 100 MP stroke
1 1 -1 0 2 0 1 -1 1 0 1 1 1 0 1 1 
1 0 1 0 1 0 1 -1 0 2 1 1 1 1 0 -4 
1 -1 0 -2 0 1 1 1 1 1 0 2 1 1 0 1 
1 -2 0 2 1 1 0 4 1 1 0 12 1 9 0 50 
1 11 0 137 1 38 0 9 0 -80 1 -63 0 -104 1 -4 
0 -19 1 0 0 -3 1 -1 1 0 -1 0 2 0 1 -1 
1 0 1 -1 1 0 1 0 1 -1 1 0 1 0 1 0 
1 1 1 0 1 -1 1 0 -1 0 2 0 1 0 1 0 
1 0 1 0 1 0 1 1 1 -1 1 0 1 0 1 1 
-1 0 2 0 1 0 1 0 1 -1 1 1 1 -1 1 0 
1 1 1 0 1 0 1 0 1 0 1 0 1 0 1 0 
1 0 1 0 1 0 1 0 1 0 -1 0 2 2 1 0 
0 3 1 1 0 3 3553 4533 100 MP stroke
1 2 0 7 1 1 0 10 1 3 0 1 0 -6 1 -6 
0 -16 1 -1 0 -1 1 -1 1 -1 1 0 1 -1 1 0 
1 0 1 0 1 0 1 0 1 0 1 0 1 0 1 0 
1 0 1 0 1 0 1 0 1 0 1 0 1 0 1 0 
1 -1 1 0 1 1 1 0 1 0 1 0 1 0 1 0 
1 0 1 0 1 0 1 0 1 0 1 0 1 0 1 0 
1 0 1 0 1 0 1 0 1 0 1 0 1 0 1 0 
1 0 1 0 1 0 1 0 1 1 1 0 1 0 1 0 
1 1 0 1 0 -1 1 -1 1 -1 1 0 1 0 1 0 
1 0 1 0 1 0 -1 0 2 0 1 0 1 0 1 0 
1 0 1 -1 1 1 1 0 1 0 1 0 1 0 1 0 
1 0 1 -1 1 1 1 0 1 0 1 0 1 0 1 0 
1 0 1 0 1 0 3463 4542 100 MP stroke
1 0 1 0 1 0 1 0 1 0 1 0 1 0 1 0 
-1 0 2 0 1 0 1 0 1 0 1 0 1 0 1 0 
1 0 1 0 1 0 1 0 1 0 1 0 1 0 1 0 
1 0 1 0 1 0 1 0 1 0 1 0 1 0 1 0 
1 0 1 0 1 0 1 0 1 0 1 0 1 0 1 0 
1 0 1 0 1 0 1 0 1 0 1 -1 1 1 1 0 
1 0 1 0 1 1 0 6 1 2 0 -9 1 0 1 0 
1 0 1 0 1 0 1 0 1 0 1 0 -1 0 2 0 
1 0 1 0 1 0 1 0 1 0 1 0 1 0 1 0 
1 0 0 1 0 -1 2 0 0 1 1 -1 1 0 1 1 
-1 0 2 0 0 -1 1 -1 0 4 1 1 0 7 0 -5 
1 -4 0 101 1 4 0 -102 1 -4 1 -1 1 0 1 0 
1 0 1 0 1 0 3377 4542 100 MP stroke
1 0 1 0 1 0 1 0 1 -1 1 1 1 0 1 0 
1 0 1 0 1 0 1 0 1 -1 1 1 1 0 1 0 
1 0 1 0 0 3 1 1 0 3 1 -3 0 60 1 6 
0 -67 1 -3 0 -1 1 1 1 0 1 0 1 0 1 0 
1 0 1 0 1 -1 1 0 1 1 1 0 1 0 1 0 
1 0 1 0 1 0 1 -1 -1 0 2 2 0 -3 1 1 
1 1 1 0 1 1 -1 0 2 0 1 1 0 0 0 13 
1 15 0 17 0 -23 1 -6 0 130 1 -10 0 -133 1 -4 
0 -1 0 1 1 -1 1 0 1 0 1 0 1 -1 1 1 
1 0 1 0 1 0 1 0 1 0 1 0 1 0 1 0 
1 0 1 0 1 0 1 0 1 -1 1 1 1 0 1 0 
1 0 1 0 1 1 1 1 0 10 1 1 0 -12 1 -1 
1 0 1 0 1 0 3296 4542 100 MP stroke
1 0 1 0 1 0 1 0 1 0 1 0 1 0 1 0 
1 0 1 0 1 0 1 0 1 0 1 0 1 0 1 -1 
1 1 1 0 1 0 1 0 1 0 1 1 0 2 1 1 
0 11 1 3 0 -15 1 -1 0 1 0 -1 1 -1 1 -1 
1 0 1 0 1 0 1 0 1 0 1 0 1 0 1 0 
1 0 1 0 1 0 1 0 1 0 1 0 1 0 1 0 
1 -1 1 1 1 0 1 0 1 0 1 0 1 0 1 1 
0 6 1 3 0 -8 1 -2 1 0 1 0 1 0 1 0 
1 0 -1 0 2 0 1 0 1 0 1 0 1 0 1 0 
1 0 1 0 1 0 1 0 1 0 1 0 1 0 1 -1 
1 1 1 0 1 1 1 -1 -1 0 2 2 0 2 1 1 
0 8 1 1 0 34 1 3 0 -46 1 -4 1 -1 1 0 
1 0 1 0 1 0 3210 4542 100 MP stroke
1 0 1 0 1 0 1 0 1 0 1 0 1 0 1 0 
1 0 1 0 1 0 1 0 1 0 1 0 1 0 1 -1 
1 1 -1 0 2 0 1 0 1 0 1 1 1 1 -1 0 
2 -2 1 0 1 0 1 0 1 0 1 0 1 0 1 0 
1 0 1 0 1 0 1 0 1 0 1 0 1 0 1 0 
1 0 1 0 1 0 1 0 1 0 1 0 1 0 0 1 
2 3 0 4 0 -1 1 -3 0 -2 1 1 0 2 0 -1 
1 -1 0 -2 1 -1 1 0 1 0 0 -1 0 1 2 0 
1 0 1 0 1 0 1 0 1 0 1 0 1 0 1 0 
1 0 -1 0 2 0 1 0 -1 0 2 0 1 -1 1 1 
1 0 1 0 1 0 1 0 1 0 1 1 1 0 1 0 
1 0 1 0 1 0 1 0 1 0 1 0 1 0 -1 0 
2 0 1 0 1 0 3123 4541 100 MP stroke
0 -1 0 1 1 -1 1 0 1 0 1 0 1 0 1 0 
1 -1 1 1 1 -1 1 1 1 0 1 0 1 0 1 0 
0 5 1 4 0 12 1 22 0 70 0 -12 1 -30 0 -70 
1 0 1 -1 1 0 1 -1 1 1 1 -1 -1 0 2 0 
1 0 -1 0 2 0 1 0 1 1 1 -1 1 0 1 1 
1 0 1 -1 1 0 1 1 1 -1 -1 0 2 0 1 1 
-1 0 2 0 1 -1 -1 0 2 0 1 1 1 0 1 0 
1 0 1 0 1 0 1 0 1 0 1 0 1 0 1 0 
1 0 1 0 1 0 1 0 1 0 1 0 1 0 1 0 
1 0 1 0 1 0 1 0 1 -1 1 1 -1 0 2 0 
1 0 1 0 -1 0 2 0 0 4 1 4 0 11 1 13 
0 61 1 -14 0 -74 1 -1 0 -1 1 -1 0 1 0 -1 
1 8 0 23 0 -20 3047 4529 100 MP stroke
1 -9 0 -4 1 0 1 -1 1 0 1 0 1 0 1 0 
1 0 1 0 1 0 1 0 1 -1 1 0 1 0 1 1 
1 -1 1 0 1 0 1 0 1 0 1 0 1 1 1 1 
1 0 -1 0 2 2 0 2 0 -1 1 1 0 1 0 -1 
2 0 1 1 -1 -2 0 2 2 -2 1 -1 1 -1 1 0 
1 -1 1 0 0 2 2 2 0 1 0 -1 1 -1 0 3 
1 -1 0 -2 1 1 0 1 1 -1 0 1 0 -1 1 -1 
1 -1 0 1 0 -1 1 -3 0 2 0 -4 0 0 1 -1 
0 7 0 -3 1 0 0 3 1 1 0 3 1 1 0 -1 
0 3 1 2 0 1 0 -10 1 -5 0 -5 0 23 1 30 
0 166 1 130 0 541 0 -12 1 -155 0 -666 1 -2 0 -37 
1 0 0 -6 1 -1 0 -1 1 -1 1 -2 -1 0 2 0 
1 -1 1 1 1 -1 2985 4543 100 MP stroke
1 0 1 0 1 0 1 0 1 0 1 0 1 0 1 -1 
-1 0 2 0 1 1 -1 0 2 0 1 -1 1 1 1 0 
1 0 1 0 1 0 1 0 1 0 1 1 1 0 -1 -1 
0 1 2 0 1 0 1 0 1 0 -1 0 2 0 1 -1 
1 1 1 0 1 1 -1 0 2 0 1 0 1 0 1 0 
1 0 1 -1 1 0 0 2 1 1 0 -4 1 -1 0 1 
1 1 0 1 2 2 1 1 0 -1 0 2 1 1 0 16 
1 10 0 23 1 11 0 128 0 -4 1 -30 0 -133 1 -6 
0 -16 1 -1 0 -2 2 -2 1 0 1 0 1 0 1 -1 
1 1 1 -1 1 0 1 0 1 0 1 0 1 0 1 0 
1 0 1 0 1 0 1 0 1 0 1 0 1 0 1 0 
1 0 1 0 1 1 1 0 1 -1 1 0 1 0 1 0 
1 0 1 1 1 0 2903 4542 100 MP stroke
1 0 1 0 1 0 1 0 1 1 1 0 1 0 1 0 
1 0 1 0 -1 0 2 0 1 0 1 -1 0 -1 0 1 
1 1 1 0 -1 0 2 2 0 5 1 3 0 3 1 -1 
0 2 1 3 0 10 1 7 0 50 0 -4 1 -15 0 -54 
1 -3 0 -6 1 -1 1 0 1 -1 1 -1 1 0 1 0 
1 0 1 0 1 0 1 0 1 -1 1 0 1 1 1 0 
1 -1 1 1 1 -1 1 1 1 0 1 0 1 0 1 0 
1 0 1 -1 -1 0 2 0 1 1 -1 0 2 0 1 -1 
1 1 1 0 1 0 1 0 1 0 1 0 -1 0 2 0 
1 -1 1 1 1 0 1 0 -1 0 2 0 1 0 1 0 
1 0 1 0 1 0 1 0 1 0 1 0 1 0 1 1 
1 1 1 0 1 1 1 0 0 2 1 -1 0 -2 1 -1 
1 -1 1 0 1 0 2822 4542 100 MP stroke
1 0 1 0 1 0 1 0 1 0 1 0 1 0 1 0 
1 0 1 0 1 0 1 0 1 0 1 0 1 0 1 0 
1 0 1 0 1 0 1 0 1 0 1 0 1 0 1 0 
1 0 1 0 1 0 1 0 1 0 1 0 1 0 1 0 
1 0 1 0 1 0 1 0 1 0 1 0 1 0 1 0 
1 0 1 0 1 0 1 0 1 0 1 0 1 0 1 0 
1 0 1 0 1 0 1 0 1 0 1 0 1 0 1 0 
1 0 1 0 1 0 1 0 1 0 1 0 1 0 1 0 
1 0 1 0 1 0 1 0 1 0 1 0 1 0 1 0 
1 0 1 0 1 0 1 0 1 0 1 0 1 0 1 0 
1 0 1 0 1 0 1 0 1 0 1 0 1 0 1 0 
1 0 1 0 1 0 1 0 1 0 1 0 1 0 1 0 
1 0 1 0 1 0 2723 4542 100 MP stroke
1 0 1 0 1 0 1 0 1 0 1 0 1 0 1 0 
1 0 1 0 1 0 1 0 1 0 1 0 1 0 1 0 
1 0 1 0 1 0 1 0 1 0 1 0 1 0 1 0 
1 0 1 0 1 0 1 0 1 0 1 0 1 0 1 0 
1 0 1 0 1 0 1 0 1 0 1 0 1 0 1 0 
1 0 1 0 1 0 1 0 1 0 1 0 1 0 1 0 
1 0 1 0 1 0 1 0 1 0 1 0 1 0 1 0 
1 0 1 0 1 0 1 0 1 0 1 0 1 0 1 0 
1 0 1 0 1 0 1 0 1 0 1 0 1 0 1 0 
1 0 1 0 1 0 1 0 1 0 1 0 1 0 1 0 
1 0 1 0 1 0 1 0 1 0 1 0 1 0 1 0 
1 0 1 0 1 0 1 0 1 0 1 0 1 0 1 0 
1 0 1 0 1 0 2624 4542 100 MP stroke
1 0 1 0 1 0 1 0 1 0 1 0 1 0 1 0 
1 0 1 0 1 0 1 0 1 1 0 -1 1 -1 1 1 
1 0 1 0 1 1 0 -2 0 3 1 2 0 8 1 -9 
0 -2 0 120 1 -14 0 -110 0 3 2 0 1 0 1 0 
1 0 1 0 1 0 1 0 1 0 1 0 1 0 1 0 
1 0 1 0 1 0 1 0 1 0 1 0 1 0 1 0 
1 0 1 0 1 0 1 0 1 0 1 0 1 0 1 0 
1 0 1 0 1 0 1 0 1 0 1 0 1 0 1 0 
1 0 1 0 1 0 1 0 1 0 1 0 1 0 1 0 
1 0 1 0 1 0 1 0 1 0 1 0 1 0 1 0 
1 1 0 3 1 1 0 -3 1 -1 1 -1 1 0 1 0 
1 0 1 0 1 0 1 0 1 0 1 0 1 0 1 0 
1 0 1 0 1 0 2534 4542 100 MP stroke
1 0 1 0 1 0 1 0 1 0 1 0 1 0 1 0 
1 0 1 0 1 0 1 0 1 0 1 0 1 0 1 0 
1 0 1 0 1 0 1 0 1 0 1 0 1 0 1 0 
1 0 1 0 1 0 1 0 1 0 1 0 1 0 1 0 
1 0 1 0 1 0 1 0 1 0 1 0 1 0 1 0 
1 0 1 0 1 0 1 0 1 0 1 0 1 0 1 0 
1 0 1 0 1 0 1 0 1 0 1 0 1 0 1 0 
1 0 1 0 1 0 1 0 1 0 1 0 1 0 1 0 
1 0 1 0 1 0 1 0 1 0 1 0 1 0 1 0 
1 0 1 0 1 0 1 0 1 0 1 0 1 0 1 0 
1 0 1 0 1 0 1 0 1 0 1 0 1 0 1 0 
1 0 1 0 1 0 1 0 1 0 1 1 0 11 1 1 
0 -11 1 -1 0 9 2438 4532 100 MP stroke
1 0 0 -9 1 -1 1 0 1 0 1 0 1 0 1 0 
1 0 1 0 1 0 1 0 1 0 1 0 1 0 1 0 
1 0 1 0 1 0 1 0 1 0 1 0 1 0 1 0 
1 0 1 0 1 0 1 0 1 0 1 -1 1 1 1 0 
-1 0 2 0 1 0 1 0 1 0 1 0 1 0 1 0 
1 0 1 0 1 0 -1 0 2 0 1 0 1 0 1 0 
1 0 1 0 1 0 0 3 1 1 1 -6 -1 0 2 2 
0 1 2 0 0 3 1 -1 0 -7 0 8 1 19 0 20 
0 -40 0 14 1 70 0 211 0 -180 1 -93 0 -41 0 18 
1 -1 1 -1 1 0 1 0 1 0 1 0 1 0 1 0 
1 -1 1 0 1 0 0 0 2 0 1 0 1 0 1 0 
1 0 1 0 1 0 1 0 1 0 1 0 1 1 1 0 
1 0 1 0 1 0 2354 4542 100 MP stroke
1 0 1 0 1 0 1 0 1 0 1 0 1 0 1 0 
1 0 1 0 1 0 1 0 1 0 1 0 1 1 0 -1 
0 1 1 -1 1 1 -1 0 2 0 1 -1 0 2 1 1 
0 -5 1 1 1 1 1 1 1 0 0 1 0 -1 1 1 
0 -2 0 20 1 6 0 -1 0 128 1 30 0 -159 1 -3 
0 2 0 -17 1 -1 0 -2 1 -1 1 -1 1 0 1 -1 
1 0 1 0 1 0 1 0 1 0 1 0 -1 0 2 0 
1 0 1 -1 1 0 1 0 1 0 -1 0 2 0 1 1 
1 0 1 0 -1 -1 0 1 2 0 1 -1 -1 0 2 0 
1 1 1 0 1 -1 1 1 -1 0 2 0 1 -1 1 1 
1 0 1 0 1 0 1 0 1 0 1 0 1 0 1 0 
1 0 1 0 1 0 1 0 1 1 1 0 1 -1 1 0 
-1 0 2 0 1 0 2277 4542 100 MP stroke
1 0 1 0 1 1 1 1 0 8 1 3 0 15 1 10 
0 8 0 -31 1 -3 0 -9 1 -1 1 -1 1 -1 -1 0 
2 0 1 0 1 0 1 0 1 0 1 0 1 0 1 0 
1 0 1 0 1 0 -1 0 2 0 1 -1 1 1 1 0 
1 0 1 -1 1 1 1 0 1 0 1 0 1 0 1 0 
1 0 -1 0 2 0 1 0 -1 0 2 0 0 -1 1 1 
1 0 1 0 1 0 1 0 1 -1 1 1 1 0 1 0 
1 0 1 0 1 0 1 0 1 0 1 0 1 0 1 0 
1 0 1 -1 1 1 1 0 1 1 1 0 1 0 -1 0 
2 2 0 -1 1 -1 1 -1 1 0 1 0 1 0 1 0 
1 0 1 0 1 0 1 0 1 0 1 0 1 0 1 0 
1 0 1 0 1 0 1 0 1 0 1 0 1 0 1 0 
1 0 1 0 1 0 2190 4542 100 MP stroke
1 0 1 0 1 0 1 0 1 0 1 0 1 0 1 0 
1 0 1 0 1 0 1 0 1 0 1 0 1 0 1 0 
1 0 1 0 1 0 1 0 1 0 1 0 1 0 1 0 
1 0 1 0 1 0 1 0 1 0 1 0 1 0 1 0 
1 0 1 0 1 0 1 0 1 0 1 0 1 0 1 0 
1 0 1 0 1 0 1 0 1 0 1 0 1 0 1 0 
1 0 1 0 1 0 1 0 1 0 1 0 1 0 1 0 
1 0 1 0 1 0 1 0 1 0 1 0 1 0 1 0 
1 0 1 0 1 0 1 0 1 0 1 0 1 0 1 0 
1 0 1 0 1 0 1 0 1 0 1 0 1 0 1 0 
1 0 1 0 1 0 1 0 1 0 1 0 1 0 1 0 
1 0 1 0 1 0 1 0 1 0 1 0 1 0 1 0 
1 0 1 0 1 0 2091 4542 100 MP stroke
1 0 1 0 1 0 1 0 1 0 1 0 1 0 1 0 
1 0 1 0 1 0 1 0 1 0 1 0 1 0 1 0 
1 0 1 0 1 0 1 0 1 0 1 0 1 0 1 0 
1 0 1 0 1 0 1 0 1 0 1 0 1 0 1 0 
1 0 1 0 1 0 1 0 1 0 1 0 1 0 1 0 
1 0 1 0 1 0 1 0 1 0 1 0 1 0 1 0 
1 0 1 0 1 0 1 0 1 0 1 0 1 0 1 0 
1 0 1 0 1 0 1 0 1 0 1 0 1 0 1 0 
1 0 1 0 1 0 1 0 1 0 1 0 1 0 1 0 
1 0 1 0 1 0 1 0 1 0 1 0 1 0 1 0 
1 0 1 0 1 0 1 0 1 0 1 0 1 0 1 0 
1 0 1 0 1 0 1 0 1 0 1 0 1 0 1 0 
1 0 1 0 1 0 1992 4542 100 MP stroke
1 0 1 0 1 0 1 0 1 0 1 0 1 0 1 0 
1 0 1 0 1 0 1 0 1 0 1 0 1 0 1 0 
1 0 1 0 1 0 1 0 1 0 1 0 1 0 1 0 
1 0 1 0 1 0 1 0 1 0 1 0 1 0 1 0 
1 0 1 0 1 0 1 0 1 0 1 0 1 0 1 0 
1 0 1 0 1 0 1 0 1 0 1 0 1 0 1 0 
1 0 1 0 1 0 1 0 1 0 1 0 1 2 -1 0 
2 -2 1 1 1 -1 1 0 1 0 1 0 1 0 1 0 
1 0 1 0 1 0 1 0 1 0 1 0 1 0 1 0 
1 0 1 0 1 0 1 0 1 0 1 0 1 0 1 0 
1 0 1 0 1 0 1 0 1 0 1 0 1 0 1 0 
1 0 1 0 1 0 1 0 1 0 1 0 1 0 1 0 
1 0 1 0 1 0 1894 4542 100 MP stroke
1 0 1 0 1 0 1 0 1 0 1 0 1 0 1 0 
1 0 1 0 1 0 1 0 1 0 1 0 1 0 1 0 
1 0 1 0 1 0 1 0 1 0 1 0 1 0 1 0 
1 0 1 0 1 0 1 0 1 0 1 0 1 0 1 0 
1 0 1 0 1 0 1 0 1 0 1 0 1 0 1 0 
1 0 1 0 1 0 1 0 1 0 1 0 1 0 1 -1 
1 0 1 1 1 0 1 0 -1 0 2 0 1 -1 1 0 
-1 0 2 0 1 0 -1 0 2 2 1 0 1 0 0 4 
0 -1 1 -1 0 -2 1 -1 0 5 0 -6 1 -1 0 -1 
0 6 1 -1 0 2 0 -4 0 3 1 2 0 2 0 -6 
0 3 1 4 0 -36 1 -14 0 162 0 -122 1 177 0 837 
0 -1048 1 -19 0 105 0 -47 1 -1 1 -1 1 -1 1 0 
1 0 1 0 1 0 1818 4542 100 MP stroke
1 0 1 0 1 0 1 0 1 0 1 0 1 0 1 0 
1 0 1 0 1 0 1 0 1 0 1 0 1 0 1 0 
1 0 1 0 1 0 1 0 1 0 1 0 1 0 1 0 
1 0 1 0 1 0 1 0 1 0 1 0 1 0 1 0 
1 0 1 0 1 0 1 0 1 0 1 0 1 0 1 0 
1 0 1 0 0 3 1 -1 0 -4 0 1 1 1 1 1 
1 1 0 3 0 -3 1 -3 0 27 0 -28 0 10 1 19 
0 193 0 -193 1 -29 0 7 0 -3 1 -1 1 -1 1 0 
1 0 1 0 1 0 1 0 1 0 1 0 1 0 1 0 
1 0 1 0 1 0 1 0 1 0 1 0 1 0 1 0 
1 0 1 0 1 0 1 0 1 0 1 0 1 0 1 0 
1 0 1 0 1 0 1 0 1 0 1 0 1 0 1 0 
1 0 1 0 1 0 1731 4542 100 MP stroke
1 0 1 0 1 0 1 0 1 0 1 0 1 0 1 0 
1 0 1 0 1 0 1 0 1 0 1 0 1 0 1 1 
0 2 1 1 0 12 0 -6 1 -5 0 -4 1 -1 1 0 
1 0 1 0 1 0 1 0 1 0 1 0 1 0 1 0 
1 0 1 0 1 0 1 0 1 0 1 0 1 0 1 0 
1 0 1 0 1 0 1 0 1 0 1 0 1 0 1 0 
1 0 1 0 1 0 1 0 1 0 1 0 1 0 1 0 
1 0 1 0 1 0 1 0 1 0 1 0 1 0 1 0 
1 0 1 0 1 0 1 0 1 0 1 0 1 0 1 0 
1 0 1 0 0 4 1 1 0 7 0 -3 1 -2 0 -5 
1 -1 1 -1 1 0 1 0 1 0 1 0 1 0 1 0 
1 0 1 0 1 0 1 0 1 0 1 0 1 0 1 0 
1 0 1 0 1 0 1640 4542 100 MP stroke
1 0 1 0 1 0 1 0 1 0 1 0 1 0 1 0 
1 0 1 0 1 0 1 0 1 0 1 0 1 0 1 0 
1 0 1 0 1 0 1 0 1 0 1 0 1 0 1 0 
1 0 1 0 1 0 1 0 1 0 1 0 1 0 1 0 
1 0 1 0 1 0 1 1 1 1 0 2 0 -1 1 -1 
1 -2 -1 0 2 0 1 0 1 0 1 0 1 0 1 0 
1 0 1 0 1 0 1 0 1 0 1 0 1 0 1 0 
1 0 1 0 1 0 1 0 1 0 1 0 1 0 1 0 
1 0 1 0 1 0 1 0 1 0 1 0 1 0 1 0 
1 0 1 0 1 0 1 0 1 0 1 0 1 0 1 0 
1 0 1 0 1 0 1 0 1 0 1 0 1 0 1 0 
1 0 1 0 1 0 1 0 1 0 1 0 1 0 1 0 
1 0 1 0 1 0 1544 4542 100 MP stroke
1 0 1 0 1 0 1 0 1 0 1 0 1 0 1 0 
1 0 1 0 1 0 1 0 1 0 1 0 1 0 1 0 
1 0 1 0 1 0 1 0 1 0 1 0 1 0 1 0 
1 0 1 0 1 0 1 0 1 0 1 0 1 0 1 0 
1 0 1 0 1 0 1 0 1 0 1 0 1 0 1 0 
1 0 1 0 1 0 1 0 1 0 1 0 1 0 1 0 
1 0 1 0 1 0 1 0 1 0 1 0 1 0 1 0 
1 0 1 0 1 0 1 0 1 0 1 0 1 0 1 0 
1 0 1 0 1 0 1 0 1 0 1 0 1 0 1 0 
1 0 1 0 1 0 1 0 1 0 1 0 1 0 1 0 
1 0 1 0 1 0 1 0 1 0 1 0 1 0 1 0 
1 0 1 0 1 0 1 0 1 0 1 0 1 0 1 0 
1 0 1 0 1 0 1445 4542 100 MP stroke
1 0 1 0 1 0 1 0 1 0 1 0 1 0 1 0 
1 0 1 0 1 0 1 0 1 0 1 0 1 0 1 0 
1 0 1 0 1 0 1 0 1 0 1 0 1 0 1 0 
1 0 1 0 1 0 1 0 1 0 1 0 1 0 1 0 
1 0 1 0 1 0 1 0 1 0 1 0 1 0 1 0 
1 0 1 0 1 0 1 0 1 0 1 0 1 0 1 0 
1 0 1 0 1 0 1 0 1 0 1 0 1 0 1 0 
1 0 1 0 1 0 1 0 1 0 1 0 1 0 1 0 
1 0 1 0 1 0 1 0 1 0 1 0 1 0 1 0 
1 0 1 0 1 0 1 0 1 0 1 0 1 0 1 0 
1 0 1 0 1 0 1 0 1 0 1 0 1 0 1 0 
1 0 1 0 1 0 1 0 1 0 1 0 1 0 1 0 
1 0 1 0 1 0 1346 4542 100 MP stroke
1 0 1 0 1 0 1 0 1 0 1 0 1 0 1 0 
1 0 1 0 1 0 1 0 1 0 1 0 1 0 1 0 
1 0 1 0 1 0 1 0 1 0 1 0 1 0 1 0 
1 0 1 0 1 0 1 0 1 0 1 0 1 0 1 0 
1 0 1 0 1 0 1 0 1 0 1 0 1 0 1 0 
1 0 1 0 1 0 1 0 1 0 1 0 1 0 1 0 
1 0 1 0 1 0 1 0 1 0 1 0 1 -1 1 1 
0 -1 0 1 1 -1 1 1 1 0 -1 0 2 0 1 0 
0 1 0 -1 1 1 0 1 0 -1 1 1 0 -1 0 1 
1 1 0 -1 1 1 1 -1 1 1 -1 0 2 0 1 -1 
-1 0 2 0 0 1 0 -1 2 0 0 1 0 -2 1 1 
0 -1 0 1 1 -1 1 -1 1 0 1 0 1 0 1 0 
1 0 1 0 1 0 1264 4542 100 MP stroke
1 0 1 -1 1 1 1 0 1 0 1 0 1 0 1 0 
1 0 1 0 1 0 1 0 1 0 1 0 1 0 1 0 
1 0 1 0 1 0 1 0 1 0 1 0 1 0 1 0 
1 0 1 0 1 0 1 0 1 0 1 0 1 0 1 0 
1 0 1 0 1 0 1 0 1 0 1 0 1 0 1 0 
1 0 1 0 1 0 1 0 1 0 1 0 1 0 1 0 
1 0 1 0 1 0 1 0 1 0 1 0 1 0 1 0 
1 0 1 0 1 0 1 0 1 0 1 0 1 0 1 0 
1 0 1 0 1 0 1 0 1 0 1 0 1 0 1 0 
1 0 1 0 1 0 1 0 1 0 1 0 1 0 1 0 
1 0 1 0 1 0 1 0 1 0 1 0 1 0 1 0 
1 0 1 0 1 0 1 0 1 0 1 0 1 0 1 0 
1 0 1 0 1 0 1165 4542 100 MP stroke
1 0 1 0 1 0 1 0 1 0 1 0 1 0 1 0 
1 0 1 0 1 0 1 0 1 0 1 0 1 0 1 0 
1 0 1 0 1 0 1 0 1 0 1 0 1 0 1 0 
1 0 1 0 1 0 1 0 1 0 1 0 1 0 1 0 
1 0 1 0 1 0 1 0 1 0 1 0 1 0 1 0 
1 0 1 0 1 0 1 0 1 0 1 0 1 0 1 0 
1 0 1 0 1 0 1 0 1 0 1 0 1 0 1 0 
1 0 1 0 1 0 1 0 1 0 1 0 1 0 1 0 
1 0 1 0 1 0 1 0 1 0 1 0 1 0 1 0 
1 0 1 0 1 0 1 0 1 0 1 0 1 0 1 0 
1 0 1 0 1 0 1 0 1 0 1 0 1 0 1 0 
1 0 1 0 1 0 1 0 1 0 1 0 1 0 1 0 
1 0 1 0 1 0 1066 4542 100 MP stroke
1 0 1 0 1 0 1 0 1 0 1 0 1 0 1 0 
1 0 1 0 1 0 1 0 1 0 1 0 1 0 1 0 
1 0 1 0 1 0 -1 0 2 0 1 0 1 0 1 0 
1 0 1 0 1 0 1 0 1 0 1 0 1 0 1 0 
1 0 1 0 1 0 1 0 1 0 -1 0 2 0 1 0 
1 0 1 0 1 0 -1 0 2 0 1 0 1 0 1 0 
1 0 1 0 -1 0 2 0 1 0 1 0 1 0 1 0 
1 0 1 0 1 0 -1 0 2 0 1 0 1 0 1 0 
1 0 1 0 1 0 1 0 -1 0 2 0 1 0 1 0 
1 0 1 0 0 0 2 0 1 0 1 0 1 0 -1 0 
2 0 1 0 1 0 -1 0 2 0 1 0 1 -1 1 1 
1 0 -1 0 2 0 1 0 -1 0 2 0 1 0 1 0 
1 0 1 -1 0 1 978 4542 100 MP stroke
0 -1 1 1 1 0 1 0 1 0 -1 0 2 0 1 -1 
1 1 1 0 1 -1 1 1 0 -1 0 1 1 -1 0 1 
0 -1 1 1 1 0 1 0 1 -1 1 1 1 0 -1 0 
2 0 1 0 -1 0 2 0 1 0 1 0 -1 0 2 0 
0 0 0 -1 1 1 1 0 0 -1 1 1 1 0 1 -1 
-1 0 2 0 1 1 1 1 0 -2 1 1 1 0 0 -1 
0 1 2 0 0 -1 0 1 2 0 1 -1 0 2 0 -1 
2 0 0 1 0 -1 1 -1 0 1 2 0 0 -1 0 1 
1 1 0 1 1 -3 -1 0 2 2 1 -2 -1 0 2 2 
0 1 0 -2 1 -1 0 2 1 -1 1 -1 0 4 0 -2 
2 -2 0 2 0 -2 2 2 0 1 0 -2 1 -1 0 3 
1 -1 0 -1 1 -1 0 3 1 -1 0 -2 1 1 0 4 
0 -4 1 -1 0 -1 917 4544 100 MP stroke
0 2 1 1 0 2 0 -4 1 -1 0 5 1 1 0 -5 
1 -1 0 5 0 -2 1 -1 0 -1 1 1 0 9 0 -9 
1 -1 0 -1 0 4 1 -1 0 1 0 -3 1 -1 0 7 
1 -1 0 -6 1 1 0 6 0 -6 1 -1 0 10 1 1 
0 1 0 -12 1 1 0 4 0 -1 1 -1 0 -3 0 3 
1 1 0 3 0 -6 1 -1 0 13 0 -9 1 -1 0 -3 
0 1 899 4543 50 MP stroke
gr

6 w
c8
0 sg
%%IncludeResource: font Helvetica-Bold
/Helvetica-Bold /ISOLatin1Encoding 216 FMSR

 780  217 mt 
(Mass Spec Signal for Toluene Eluting at 11.45 seconds) s
 286 2752 mt  -90 rotate
(volts) s
90 rotate
3398 5118 mt 
(m/z) s
36 w

end %%Color Dict

eplot
%%EndObject

epage
end

showpage

%%Trailer
%%EOF
