%!PS-Adobe-2.0 EPSF-1.2
%%Creator: MATLAB, The Mathworks, Inc. Version 7.9.0.529 (R2009b). Operating System: Linux 2.6.18-274.el5 #1 SMP Fri Jul 8 17:36:59 EDT 2011 x86_64.
%%Title: ./peakLocationNoise.eps
%%CreationDate: 09/20/2011  12:31:11
%%DocumentNeededFonts: Helvetica
%%+ Helvetica-Bold
%%DocumentProcessColors: Cyan Magenta Yellow Black
%%Extensions: CMYK
%%Pages: 1
%%BoundingBox:    22   179   594   616
%%EndComments

%%BeginProlog
% MathWorks dictionary
/MathWorks 160 dict begin
% definition operators
/bdef {bind def} bind def
/ldef {load def} bind def
/xdef {exch def} bdef
/xstore {exch store} bdef
% operator abbreviations
/c  /clip ldef
/cc /concat ldef
/cp /closepath ldef
/gr /grestore ldef
/gs /gsave ldef
/mt /moveto ldef
/np /newpath ldef
/cm /currentmatrix ldef
/sm /setmatrix ldef
/rm /rmoveto ldef
/rl /rlineto ldef
/s {show newpath} bdef
/sc {setcmykcolor} bdef
/sr /setrgbcolor ldef
/sg /setgray ldef
/w /setlinewidth ldef
/j /setlinejoin ldef
/cap /setlinecap ldef
/rc {rectclip} bdef
/rf {rectfill} bdef
% page state control
/pgsv () def
/bpage {/pgsv save def} bdef
/epage {pgsv restore} bdef
/bplot /gsave ldef
/eplot {stroke grestore} bdef
% orientation switch
/portraitMode 0 def /landscapeMode 1 def /rotateMode 2 def
% coordinate system mappings
/dpi2point 0 def
% font control
/FontSize 0 def
/FMS {/FontSize xstore findfont [FontSize 0 0 FontSize neg 0 0]
  makefont setfont} bdef
/reencode {exch dup where {pop load} {pop StandardEncoding} ifelse
  exch dup 3 1 roll findfont dup length dict begin
  { 1 index /FID ne {def}{pop pop} ifelse } forall
  /Encoding exch def currentdict end definefont pop} bdef
/isroman {findfont /CharStrings get /Agrave known} bdef
/FMSR {3 1 roll 1 index dup isroman {reencode} {pop pop} ifelse
  exch FMS} bdef
/csm {1 dpi2point div -1 dpi2point div scale neg translate
 dup landscapeMode eq {pop -90 rotate}
  {rotateMode eq {90 rotate} if} ifelse} bdef
% line types: solid, dotted, dashed, dotdash
/SO { [] 0 setdash } bdef
/DO { [.5 dpi2point mul 4 dpi2point mul] 0 setdash } bdef
/DA { [6 dpi2point mul] 0 setdash } bdef
/DD { [.5 dpi2point mul 4 dpi2point mul 6 dpi2point mul 4
  dpi2point mul] 0 setdash } bdef
% macros for lines and objects
/L {lineto stroke} bdef
/MP {3 1 roll moveto 1 sub {rlineto} repeat} bdef
/AP {{rlineto} repeat} bdef
/PDlw -1 def
/W {/PDlw currentlinewidth def setlinewidth} def
/PP {closepath eofill} bdef
/DP {closepath stroke} bdef
/MR {4 -2 roll moveto dup  0 exch rlineto exch 0 rlineto
  neg 0 exch rlineto closepath} bdef
/FR {MR stroke} bdef
/PR {MR fill} bdef
/L1i {{currentfile picstr readhexstring pop} image} bdef
/tMatrix matrix def
/MakeOval {newpath tMatrix currentmatrix pop translate scale
0 0 1 0 360 arc tMatrix setmatrix} bdef
/FO {MakeOval stroke} bdef
/PO {MakeOval fill} bdef
/PD {currentlinewidth 2 div 0 360 arc fill
   PDlw -1 eq not {PDlw w /PDlw -1 def} if} def
/FA {newpath tMatrix currentmatrix pop translate scale
  0 0 1 5 -2 roll arc tMatrix setmatrix stroke} bdef
/PA {newpath tMatrix currentmatrix pop	translate 0 0 moveto scale
  0 0 1 5 -2 roll arc closepath tMatrix setmatrix fill} bdef
/FAn {newpath tMatrix currentmatrix pop translate scale
  0 0 1 5 -2 roll arcn tMatrix setmatrix stroke} bdef
/PAn {newpath tMatrix currentmatrix pop translate 0 0 moveto scale
  0 0 1 5 -2 roll arcn closepath tMatrix setmatrix fill} bdef
/vradius 0 def /hradius 0 def /lry 0 def
/lrx 0 def /uly 0 def /ulx 0 def /rad 0 def
/MRR {/vradius xdef /hradius xdef /lry xdef /lrx xdef /uly xdef
  /ulx xdef newpath tMatrix currentmatrix pop ulx hradius add uly
  vradius add translate hradius vradius scale 0 0 1 180 270 arc 
  tMatrix setmatrix lrx hradius sub uly vradius add translate
  hradius vradius scale 0 0 1 270 360 arc tMatrix setmatrix
  lrx hradius sub lry vradius sub translate hradius vradius scale
  0 0 1 0 90 arc tMatrix setmatrix ulx hradius add lry vradius sub
  translate hradius vradius scale 0 0 1 90 180 arc tMatrix setmatrix
  closepath} bdef
/FRR {MRR stroke } bdef
/PRR {MRR fill } bdef
/MlrRR {/lry xdef /lrx xdef /uly xdef /ulx xdef /rad lry uly sub 2 div def
  newpath tMatrix currentmatrix pop ulx rad add uly rad add translate
  rad rad scale 0 0 1 90 270 arc tMatrix setmatrix lrx rad sub lry rad
  sub translate rad rad scale 0 0 1 270 90 arc tMatrix setmatrix
  closepath} bdef
/FlrRR {MlrRR stroke } bdef
/PlrRR {MlrRR fill } bdef
/MtbRR {/lry xdef /lrx xdef /uly xdef /ulx xdef /rad lrx ulx sub 2 div def
  newpath tMatrix currentmatrix pop ulx rad add uly rad add translate
  rad rad scale 0 0 1 180 360 arc tMatrix setmatrix lrx rad sub lry rad
  sub translate rad rad scale 0 0 1 0 180 arc tMatrix setmatrix
  closepath} bdef
/FtbRR {MtbRR stroke } bdef
/PtbRR {MtbRR fill } bdef
/stri 6 array def /dtri 6 array def
/smat 6 array def /dmat 6 array def
/tmat1 6 array def /tmat2 6 array def /dif 3 array def
/asub {/ind2 exch def /ind1 exch def dup dup
  ind1 get exch ind2 get sub exch } bdef
/tri_to_matrix {
  2 0 asub 3 1 asub 4 0 asub 5 1 asub
  dup 0 get exch 1 get 7 -1 roll astore } bdef
/compute_transform {
  dmat dtri tri_to_matrix tmat1 invertmatrix 
  smat stri tri_to_matrix tmat2 concatmatrix } bdef
/ds {stri astore pop} bdef
/dt {dtri astore pop} bdef
/db {2 copy /cols xdef /rows xdef mul dup 3 mul string
  currentfile exch readhexstring pop
  dup 0 3 index getinterval /rbmap xdef
  dup 2 index dup getinterval /gbmap xdef
  1 index dup 2 mul exch getinterval /bbmap xdef pop pop}bdef
/it {gs np dtri aload pop moveto lineto lineto cp c
  cols rows 8 compute_transform 
  rbmap gbmap bbmap true 3 colorimage gr}bdef
/il {newpath moveto lineto stroke}bdef
currentdict end def
%%EndProlog

%%BeginSetup
MathWorks begin

0 cap

end
%%EndSetup

%%Page: 1 1
%%BeginPageSetup
%%PageBoundingBox:    22   179   594   616
MathWorks begin
bpage
%%EndPageSetup

%%BeginObject: obj1
bplot

/dpi2point 12 def
portraitMode 0216 7344 csm

   54   -48  6860  5233 MR c np
85 dict begin %Colortable dictionary
/c0 { 0.000000 0.000000 0.000000 sr} bdef
/c1 { 1.000000 1.000000 1.000000 sr} bdef
/c2 { 0.900000 0.000000 0.000000 sr} bdef
/c3 { 0.000000 0.820000 0.000000 sr} bdef
/c4 { 0.000000 0.000000 0.800000 sr} bdef
/c5 { 0.910000 0.820000 0.320000 sr} bdef
/c6 { 1.000000 0.260000 0.820000 sr} bdef
/c7 { 0.000000 0.820000 0.820000 sr} bdef
c0
1 j
1 sg
   0    0 6918 5186 PR
36 w
0 4226 5361 0 0 -4226 898 4615 4 MP
PP
-5361 0 0 4226 5361 0 0 -4226 898 4615 5 MP stroke
24 w
DO
0 sg
1556 4615 mt 1556  389 L
1556  389 mt 1556  389 L
3066 4615 mt 3066  389 L
3066  389 mt 3066  389 L
4577 4615 mt 4577  389 L
4577  389 mt 4577  389 L
6088 4615 mt 6088  389 L
6088  389 mt 6088  389 L
 898 4303 mt 6259 4303 L
6259 4303 mt 6259 4303 L
 898 3703 mt 6259 3703 L
6259 3703 mt 6259 3703 L
 898 3103 mt 6259 3103 L
6259 3103 mt 6259 3103 L
 898 2503 mt 6259 2503 L
6259 2503 mt 6259 2503 L
 898 1902 mt 6259 1902 L
6259 1902 mt 6259 1902 L
 898 1302 mt 6259 1302 L
6259 1302 mt 6259 1302 L
 898  702 mt 6259  702 L
6259  702 mt 6259  702 L
SO
36 w
 898 4615 mt 6259 4615 L
 898  389 mt 6259  389 L
 898 4615 mt  898  389 L
6259 4615 mt 6259  389 L
 898 4615 mt 6259 4615 L
 898 4615 mt  898  389 L
1556 4615 mt 1556 4668 L
1556  389 mt 1556  335 L
%%IncludeResource: font Helvetica
/Helvetica /ISOLatin1Encoding 216 FMSR

1436 4904 mt 
(13) s
3066 4615 mt 3066 4668 L
3066  389 mt 3066  335 L
2796 4904 mt 
(13.05) s
4577 4615 mt 4577 4668 L
4577  389 mt 4577  335 L
4367 4904 mt 
(13.1) s
6088 4615 mt 6088 4668 L
6088  389 mt 6088  335 L
5818 4904 mt 
(13.15) s
 898 4303 mt  845 4303 L
6259 4303 mt 6313 4303 L
 690 4383 mt 
(0) s
 898 3703 mt  845 3703 L
6259 3703 mt 6313 3703 L
 390 3783 mt 
(0.01) s
 898 3103 mt  845 3103 L
6259 3103 mt 6313 3103 L
 390 3183 mt 
(0.02) s
 898 2503 mt  845 2503 L
6259 2503 mt 6313 2503 L
 390 2583 mt 
(0.03) s
 898 1902 mt  845 1902 L
6259 1902 mt 6313 1902 L
 390 1982 mt 
(0.04) s
 898 1302 mt  845 1302 L
6259 1302 mt 6313 1302 L
 390 1382 mt 
(0.05) s
 898  702 mt  845  702 L
6259  702 mt 6313  702 L
 390  782 mt 
(0.06) s
 898 4615 mt 6259 4615 L
 898  389 mt 6259  389 L
 898 4615 mt  898  389 L
6259 4615 mt 6259  389 L
gs 898 389 5362 4227 MR c np
6 w
/c8 { 0.000000 0.000000 1.000000 sr} bdef
c8
140 3 624 -7 624 -12 623 6 624 -6 624 -2 624 5 624 6 
623 -14 232 1 898 4305 11 MP stroke
/c9 { 0.000000 0.500000 0.000000 sr} bdef
c9
140 3 624 -32 624 16 623 -2 624 10 624 -7 624 -1 624 0 
623 -5 232 6 898 4296 11 MP stroke
/c10 { 1.000000 0.000000 0.000000 sr} bdef
c10
140 -3 624 3 624 -6 623 6 624 2 624 1 624 -19 624 19 
623 6 232 -4 898 4293 11 MP stroke
/c11 { 0.000000 0.750000 0.750000 sr} bdef
c11
140 4 624 -3 624 -9 623 3 624 11 624 -12 624 24 624 -7 
623 1 232 -3 898 4290 11 MP stroke
/c12 { 0.750000 0.000000 0.750000 sr} bdef
c12
140 3 624 -6 624 3 623 8 624 0 624 -12 624 22 624 -19 
623 -4 232 7 898 4294 11 MP stroke
/c13 { 0.750000 0.750000 0.000000 sr} bdef
c13
140 0 624 7 624 -19 623 4 624 19 624 -16 624 16 624 -12 
623 8 232 1 898 4295 11 MP stroke
0.25 sg
140 1 624 -14 624 -23 623 33 624 -31 624 13 624 8 624 -19 
623 2 232 5 898 4238 11 MP stroke
c8
140 0 624 -5 624 6 623 3 624 -4 624 -16 624 9 624 0 
623 -13 232 6 898 4310 11 MP stroke
c9
140 -7 624 27 624 -1 623 -7 624 -13 624 12 624 -2 624 -6 
623 15 232 2 898 4295 11 MP stroke
c10
140 1 624 -1 624 -2 623 -1 624 9 624 -6 624 -1 624 -2 
623 -4 232 6 898 4302 11 MP stroke
c11
140 -3 624 4 624 11 623 -17 624 11 624 -6 624 -6 624 24 
623 -20 232 4 898 4305 11 MP stroke
c12
140 5 624 -18 624 15 623 -3 624 19 624 -17 624 15 624 -9 
623 5 232 -3 898 4283 11 MP stroke
c13
140 49 624 138 624 142 623 113 624 59 624 -1 624 -99 624 -99 
623 -219 232 -74 898 3583 11 MP stroke
0.25 sg
140 0 624 3 624 0 623 0 624 -2 624 -8 624 17 624 -1 
623 3 232 1 898 4246 11 MP stroke
c8
140 3 624 18 624 43 623 -16 624 29 624 -18 624 -20 624 -24 
623 -33 232 -5 898 4193 11 MP stroke
c9
140 -1 624 10 624 -14 623 2 624 3 624 -1 624 13 624 -15 
623 1 232 7 898 4277 11 MP stroke
c10
140 1 624 -1 624 5 623 -7 624 5 624 -13 624 13 624 11 
623 -14 232 2 898 4303 11 MP stroke
c11
140 2 624 7 624 -9 623 1 624 -5 624 2 624 6 624 -4 
623 3 232 -2 898 4300 11 MP stroke
c12
140 8 624 -15 624 2 623 1 624 15 624 0 624 -19 624 5 
623 -16 232 0 898 4287 11 MP stroke
c13
140 1 624 7 624 2 623 -6 624 10 624 -12 624 -6 624 7 
623 6 232 0 898 4298 11 MP stroke
0.25 sg
140 10 624 13 624 -24 623 7 624 -25 624 9 624 19 624 8 
623 -47 232 11 898 3373 11 MP stroke
c8
140 2 624 -9 624 7 623 0 624 8 624 -9 624 -6 624 9 
623 -18 232 2 898 4310 11 MP stroke
c9
140 0 624 -6 624 -2 623 8 624 -5 624 1 624 -3 624 4 
623 -4 232 2 898 4305 11 MP stroke
c10
140 -1 624 2 624 -4 623 -9 624 -8 624 10 624 -2 624 9 
623 4 232 -5 898 4296 11 MP stroke
c11
140 -1 624 -2 624 1 623 1 624 5 624 -8 624 2 624 3 
623 8 232 0 898 4291 11 MP stroke
c12
140 4 624 92 624 22 623 64 624 -2 624 68 624 -90 624 -38 
623 -56 232 -29 898 4062 11 MP stroke
c13
140 2 624 -14 624 -1 623 3 624 3 624 13 624 -15 624 8 
623 -1 232 -1 898 4297 11 MP stroke
0.25 sg
140 30 624 49 624 227 623 116 624 110 624 -17 624 -174 624 -69 
623 -218 232 -94 898 3624 11 MP stroke
c8
140 2 624 5 624 2 623 41 624 -66 624 26 624 -21 624 20 
623 -23 232 1 898 4271 11 MP stroke
c9
140 -3 624 5 624 -9 623 -5 624 17 624 -10 624 16 624 -8 
623 -5 232 1 898 4301 11 MP stroke
c10
140 -4 624 11 624 -12 623 10 624 -11 624 2 624 -7 624 4 
623 18 232 -8 898 4292 11 MP stroke
c11
140 42 624 44 624 178 623 199 624 20 624 -20 624 -85 624 -188 
623 -150 232 -75 898 3678 11 MP stroke
c12
140 -3 624 -11 624 13 623 2 624 -13 624 3 624 1 624 13 
623 2 232 -7 898 4298 11 MP stroke
c13
140 -2 624 9 624 25 623 -17 624 -18 624 15 624 -3 624 3 
623 0 232 3 898 4275 11 MP stroke
0.25 sg
140 16 624 16 624 63 623 55 624 25 624 -60 624 5 624 -48 
623 -77 232 -26 898 4098 11 MP stroke
c8
140 0 624 -5 624 6 623 -10 624 16 624 -17 624 0 624 10 
623 -6 232 -5 898 4297 11 MP stroke
c9
140 -2 624 5 624 4 623 -5 624 -9 624 5 624 1 624 1 
623 2 232 1 898 4301 11 MP stroke
c10
140 -1 624 0 624 -5 623 7 624 -11 624 12 624 -2 624 4 
623 -5 232 -4 898 4295 11 MP stroke
c11
140 58 624 312 624 232 623 379 624 97 624 -80 624 -244 624 -184 
623 -366 232 -147 898 2952 11 MP stroke
c12
140 0 624 3 624 0 623 4 624 -8 624 4 624 3 624 -1 
623 5 232 -9 898 4301 11 MP stroke
c13
140 0 624 -6 624 -1 623 -7 624 -2 624 8 624 -4 624 5 
623 1 232 -3 898 4300 11 MP stroke
gr

6 w
c13
c10
 892 4246 mt  964 4246 L
 928 4210 mt  928 4282 L
1627 4194 mt 1699 4194 L
1663 4158 mt 1663 4230 L
2492 4273 mt 2564 4273 L
2528 4237 mt 2528 4309 L
3059 3546 mt 3131 3546 L
3095 3510 mt 3095 3582 L
3136 4194 mt 3208 4194 L
3172 4158 mt 3172 4230 L
3269 3884 mt 3341 3884 L
3305 3848 mt 3305 3920 L
3370 3090 mt 3442 3090 L
3406 3054 mt 3406 3126 L
3393 3077 mt 3465 3077 L
3429 3041 mt 3429 3113 L
3413 1993 mt 3485 1993 L
3449 1957 mt 3449 2029 L
3530 4259 mt 3602 4259 L
3566 4223 mt 3566 4295 L
3532 4247 mt 3604 4247 L
3568 4211 mt 3568 4283 L
3540 3142 mt 3612 3142 L
3576 3106 mt 3576 3178 L
3544 3910 mt 3616 3910 L
3580 3874 mt 3580 3946 L
3593 3825 mt 3665 3825 L
3629 3789 mt 3629 3861 L
3644 1961 mt 3716 1961 L
3680 1925 mt 3680 1997 L
3649 3982 mt 3721 3982 L
3685 3946 mt 3685 4018 L
3668 3770 mt 3740 3770 L
3704 3734 mt 3704 3806 L
3769 4179 mt 3841 4179 L
3805 4143 mt 3805 4215 L
3802 4135 mt 3874 4135 L
3838 4099 mt 3838 4171 L
3914 4104 mt 3986 4104 L
3950 4068 mt 3950 4140 L
3943 4055 mt 4015 4055 L
3979 4019 mt 3979 4091 L
4631 4244 mt 4703 4244 L
4667 4208 mt 4667 4280 L
4792 4273 mt 4864 4273 L
4828 4237 mt 4828 4309 L
5676 4132 mt 5748 4132 L
5712 4096 mt 5712 4168 L
 903 4221 mt  953 4271 L
 953 4221 mt  903 4271 L
1638 4169 mt 1688 4219 L
1688 4169 mt 1638 4219 L
2503 4248 mt 2553 4298 L
2553 4248 mt 2503 4298 L
3070 3521 mt 3120 3571 L
3120 3521 mt 3070 3571 L
3147 4169 mt 3197 4219 L
3197 4169 mt 3147 4219 L
3280 3859 mt 3330 3909 L
3330 3859 mt 3280 3909 L
3381 3065 mt 3431 3115 L
3431 3065 mt 3381 3115 L
3404 3052 mt 3454 3102 L
3454 3052 mt 3404 3102 L
3424 1968 mt 3474 2018 L
3474 1968 mt 3424 2018 L
3541 4234 mt 3591 4284 L
3591 4234 mt 3541 4284 L
3543 4222 mt 3593 4272 L
3593 4222 mt 3543 4272 L
3551 3117 mt 3601 3167 L
3601 3117 mt 3551 3167 L
3555 3885 mt 3605 3935 L
3605 3885 mt 3555 3935 L
3604 3800 mt 3654 3850 L
3654 3800 mt 3604 3850 L
3655 1936 mt 3705 1986 L
3705 1936 mt 3655 1986 L
3660 3957 mt 3710 4007 L
3710 3957 mt 3660 4007 L
3679 3745 mt 3729 3795 L
3729 3745 mt 3679 3795 L
3780 4154 mt 3830 4204 L
3830 4154 mt 3780 4204 L
3813 4110 mt 3863 4160 L
3863 4110 mt 3813 4160 L
3925 4079 mt 3975 4129 L
3975 4079 mt 3925 4129 L
3954 4030 mt 4004 4080 L
4004 4030 mt 3954 4080 L
4642 4219 mt 4692 4269 L
4692 4219 mt 4642 4269 L
4803 4248 mt 4853 4298 L
4853 4248 mt 4803 4298 L
5687 4107 mt 5737 4157 L
5737 4107 mt 5687 4157 L
gs 898 389 5362 4227 MR c np
gr

0 sg
%%IncludeResource: font Helvetica-Bold
/Helvetica-Bold /ISOLatin1Encoding 216 FMSR

 315  217 mt 
(Effects of Noise and Peak Height on Determining Peak Locati\
on) s
2504 5118 mt 
(elution time seconds) s
 286 2752 mt  -90 rotate
(volts) s
90 rotate
36 w

end %%Color Dict

eplot
%%EndObject

epage
end

showpage

%%Trailer
%%EOF
