%!PS-Adobe-2.0 EPSF-1.2
%%Creator: MATLAB, The Mathworks, Inc. Version 7.9.0.529 (R2009b). Operating System: Linux 2.6.18-274.el5 #1 SMP Fri Jul 8 17:36:59 EDT 2011 x86_64.
%%Title: ./quantificationRegion.eps
%%CreationDate: 09/19/2011  17:21:00
%%DocumentNeededFonts: Helvetica
%%+ Helvetica-Bold
%%DocumentProcessColors: Cyan Magenta Yellow Black
%%Extensions: CMYK
%%Pages: 1
%%BoundingBox:    42   183   552   616
%%EndComments

%%BeginProlog
% MathWorks dictionary
/MathWorks 160 dict begin
% definition operators
/bdef {bind def} bind def
/ldef {load def} bind def
/xdef {exch def} bdef
/xstore {exch store} bdef
% operator abbreviations
/c  /clip ldef
/cc /concat ldef
/cp /closepath ldef
/gr /grestore ldef
/gs /gsave ldef
/mt /moveto ldef
/np /newpath ldef
/cm /currentmatrix ldef
/sm /setmatrix ldef
/rm /rmoveto ldef
/rl /rlineto ldef
/s {show newpath} bdef
/sc {setcmykcolor} bdef
/sr /setrgbcolor ldef
/sg /setgray ldef
/w /setlinewidth ldef
/j /setlinejoin ldef
/cap /setlinecap ldef
/rc {rectclip} bdef
/rf {rectfill} bdef
% page state control
/pgsv () def
/bpage {/pgsv save def} bdef
/epage {pgsv restore} bdef
/bplot /gsave ldef
/eplot {stroke grestore} bdef
% orientation switch
/portraitMode 0 def /landscapeMode 1 def /rotateMode 2 def
% coordinate system mappings
/dpi2point 0 def
% font control
/FontSize 0 def
/FMS {/FontSize xstore findfont [FontSize 0 0 FontSize neg 0 0]
  makefont setfont} bdef
/reencode {exch dup where {pop load} {pop StandardEncoding} ifelse
  exch dup 3 1 roll findfont dup length dict begin
  { 1 index /FID ne {def}{pop pop} ifelse } forall
  /Encoding exch def currentdict end definefont pop} bdef
/isroman {findfont /CharStrings get /Agrave known} bdef
/FMSR {3 1 roll 1 index dup isroman {reencode} {pop pop} ifelse
  exch FMS} bdef
/csm {1 dpi2point div -1 dpi2point div scale neg translate
 dup landscapeMode eq {pop -90 rotate}
  {rotateMode eq {90 rotate} if} ifelse} bdef
% line types: solid, dotted, dashed, dotdash
/SO { [] 0 setdash } bdef
/DO { [.5 dpi2point mul 4 dpi2point mul] 0 setdash } bdef
/DA { [6 dpi2point mul] 0 setdash } bdef
/DD { [.5 dpi2point mul 4 dpi2point mul 6 dpi2point mul 4
  dpi2point mul] 0 setdash } bdef
% macros for lines and objects
/L {lineto stroke} bdef
/MP {3 1 roll moveto 1 sub {rlineto} repeat} bdef
/AP {{rlineto} repeat} bdef
/PDlw -1 def
/W {/PDlw currentlinewidth def setlinewidth} def
/PP {closepath eofill} bdef
/DP {closepath stroke} bdef
/MR {4 -2 roll moveto dup  0 exch rlineto exch 0 rlineto
  neg 0 exch rlineto closepath} bdef
/FR {MR stroke} bdef
/PR {MR fill} bdef
/L1i {{currentfile picstr readhexstring pop} image} bdef
/tMatrix matrix def
/MakeOval {newpath tMatrix currentmatrix pop translate scale
0 0 1 0 360 arc tMatrix setmatrix} bdef
/FO {MakeOval stroke} bdef
/PO {MakeOval fill} bdef
/PD {currentlinewidth 2 div 0 360 arc fill
   PDlw -1 eq not {PDlw w /PDlw -1 def} if} def
/FA {newpath tMatrix currentmatrix pop translate scale
  0 0 1 5 -2 roll arc tMatrix setmatrix stroke} bdef
/PA {newpath tMatrix currentmatrix pop	translate 0 0 moveto scale
  0 0 1 5 -2 roll arc closepath tMatrix setmatrix fill} bdef
/FAn {newpath tMatrix currentmatrix pop translate scale
  0 0 1 5 -2 roll arcn tMatrix setmatrix stroke} bdef
/PAn {newpath tMatrix currentmatrix pop translate 0 0 moveto scale
  0 0 1 5 -2 roll arcn closepath tMatrix setmatrix fill} bdef
/vradius 0 def /hradius 0 def /lry 0 def
/lrx 0 def /uly 0 def /ulx 0 def /rad 0 def
/MRR {/vradius xdef /hradius xdef /lry xdef /lrx xdef /uly xdef
  /ulx xdef newpath tMatrix currentmatrix pop ulx hradius add uly
  vradius add translate hradius vradius scale 0 0 1 180 270 arc 
  tMatrix setmatrix lrx hradius sub uly vradius add translate
  hradius vradius scale 0 0 1 270 360 arc tMatrix setmatrix
  lrx hradius sub lry vradius sub translate hradius vradius scale
  0 0 1 0 90 arc tMatrix setmatrix ulx hradius add lry vradius sub
  translate hradius vradius scale 0 0 1 90 180 arc tMatrix setmatrix
  closepath} bdef
/FRR {MRR stroke } bdef
/PRR {MRR fill } bdef
/MlrRR {/lry xdef /lrx xdef /uly xdef /ulx xdef /rad lry uly sub 2 div def
  newpath tMatrix currentmatrix pop ulx rad add uly rad add translate
  rad rad scale 0 0 1 90 270 arc tMatrix setmatrix lrx rad sub lry rad
  sub translate rad rad scale 0 0 1 270 90 arc tMatrix setmatrix
  closepath} bdef
/FlrRR {MlrRR stroke } bdef
/PlrRR {MlrRR fill } bdef
/MtbRR {/lry xdef /lrx xdef /uly xdef /ulx xdef /rad lrx ulx sub 2 div def
  newpath tMatrix currentmatrix pop ulx rad add uly rad add translate
  rad rad scale 0 0 1 180 360 arc tMatrix setmatrix lrx rad sub lry rad
  sub translate rad rad scale 0 0 1 0 180 arc tMatrix setmatrix
  closepath} bdef
/FtbRR {MtbRR stroke } bdef
/PtbRR {MtbRR fill } bdef
/stri 6 array def /dtri 6 array def
/smat 6 array def /dmat 6 array def
/tmat1 6 array def /tmat2 6 array def /dif 3 array def
/asub {/ind2 exch def /ind1 exch def dup dup
  ind1 get exch ind2 get sub exch } bdef
/tri_to_matrix {
  2 0 asub 3 1 asub 4 0 asub 5 1 asub
  dup 0 get exch 1 get 7 -1 roll astore } bdef
/compute_transform {
  dmat dtri tri_to_matrix tmat1 invertmatrix 
  smat stri tri_to_matrix tmat2 concatmatrix } bdef
/ds {stri astore pop} bdef
/dt {dtri astore pop} bdef
/db {2 copy /cols xdef /rows xdef mul dup 3 mul string
  currentfile exch readhexstring pop
  dup 0 3 index getinterval /rbmap xdef
  dup 2 index dup getinterval /gbmap xdef
  1 index dup 2 mul exch getinterval /bbmap xdef pop pop}bdef
/it {gs np dtri aload pop moveto lineto lineto cp c
  cols rows 8 compute_transform 
  rbmap gbmap bbmap true 3 colorimage gr}bdef
/il {newpath moveto lineto stroke}bdef
currentdict end def
%%EndProlog

%%BeginSetup
MathWorks begin

0 cap

end
%%EndSetup

%%Page: 1 1
%%BeginPageSetup
%%PageBoundingBox:    42   183   552   616
MathWorks begin
bpage
%%EndPageSetup

%%BeginObject: obj1
bplot

/dpi2point 12 def
portraitMode 0216 7344 csm

  288   -48  6124  5186 MR c np
85 dict begin %Colortable dictionary
/c0 { 0.000000 0.000000 0.000000 sr} bdef
/c1 { 1.000000 1.000000 1.000000 sr} bdef
/c2 { 0.900000 0.000000 0.000000 sr} bdef
/c3 { 0.000000 0.820000 0.000000 sr} bdef
/c4 { 0.000000 0.000000 0.800000 sr} bdef
/c5 { 0.910000 0.820000 0.320000 sr} bdef
/c6 { 1.000000 0.260000 0.820000 sr} bdef
/c7 { 0.000000 0.820000 0.820000 sr} bdef
c0
1 j
1 sg
   0    0 6918 5186 PR
36 w
0 4226 5361 0 0 -4226 898 4615 4 MP
PP
-5361 0 0 4226 5361 0 0 -4226 898 4615 5 MP stroke
24 w
DO
0 sg
1356 4615 mt 1356  389 L
1356  389 mt 1356  389 L
2155 4615 mt 2155  389 L
2155  389 mt 2155  389 L
2954 4615 mt 2954  389 L
2954  389 mt 2954  389 L
3753 4615 mt 3753  389 L
3753  389 mt 3753  389 L
4552 4615 mt 4552  389 L
4552  389 mt 4552  389 L
5351 4615 mt 5351  389 L
5351  389 mt 5351  389 L
6150 4615 mt 6150  389 L
6150  389 mt 6150  389 L
 898 4178 mt 6259 4178 L
6259 4178 mt 6259 4178 L
 898 3427 mt 6259 3427 L
6259 3427 mt 6259 3427 L
 898 2675 mt 6259 2675 L
6259 2675 mt 6259 2675 L
 898 1924 mt 6259 1924 L
6259 1924 mt 6259 1924 L
 898 1173 mt 6259 1173 L
6259 1173 mt 6259 1173 L
 898  421 mt 6259  421 L
6259  421 mt 6259  421 L
SO
36 w
 898 4615 mt 6259 4615 L
 898  389 mt 6259  389 L
 898 4615 mt  898  389 L
6259 4615 mt 6259  389 L
 898 4615 mt 6259 4615 L
 898 4615 mt  898  389 L
1356 4615 mt 1356 4561 L
1356  389 mt 1356  442 L
%%IncludeResource: font Helvetica
/Helvetica /ISOLatin1Encoding 216 FMSR

1146 4850 mt 
(11.2) s
2155 4615 mt 2155 4561 L
2155  389 mt 2155  442 L
1945 4850 mt 
(11.4) s
2954 4615 mt 2954 4561 L
2954  389 mt 2954  442 L
2744 4850 mt 
(11.6) s
3753 4615 mt 3753 4561 L
3753  389 mt 3753  442 L
3543 4850 mt 
(11.8) s
4552 4615 mt 4552 4561 L
4552  389 mt 4552  442 L
4432 4850 mt 
(12) s
5351 4615 mt 5351 4561 L
5351  389 mt 5351  442 L
5141 4850 mt 
(12.2) s
6150 4615 mt 6150 4561 L
6150  389 mt 6150  442 L
5940 4850 mt 
(12.4) s
 898 4178 mt  952 4178 L
6259 4178 mt 6206 4178 L
 744 4258 mt 
(2) s
 898 3427 mt  952 3427 L
6259 3427 mt 6206 3427 L
 744 3507 mt 
(4) s
 898 2675 mt  952 2675 L
6259 2675 mt 6206 2675 L
 744 2755 mt 
(6) s
 898 1924 mt  952 1924 L
6259 1924 mt 6206 1924 L
 744 2004 mt 
(8) s
 898 1173 mt  952 1173 L
6259 1173 mt 6206 1173 L
 624 1253 mt 
(10) s
 898  421 mt  952  421 L
6259  421 mt 6206  421 L
 624  501 mt 
(12) s
 898  335 mt 
(x 10) s
%%IncludeResource: font Helvetica
/Helvetica /ISOLatin1Encoding 144 FMSR

1306  201 mt 
(-3) s
 898 4615 mt 6259 4615 L
 898  389 mt 6259  389 L
 898 4615 mt  898  389 L
6259 4615 mt 6259  389 L
gs 898 389 5362 4227 MR c np
6 w
/c8 { 0.000000 0.000000 1.000000 sr} bdef
c8
79 -76 82 -190 83 151 82 -35 83 53 82 26 83 70 82 -112 
83 22 82 -67 83 226 82 -74 82 79 83 -29 82 -41 83 127 
82 113 83 301 82 137 83 567 82 520 83 259 82 496 83 566 
82 653 83 124 82 -237 83 -356 82 -424 83 -417 82 -708 83 -659 
82 -270 83 -409 82 -100 82 -59 83 114 82 112 83 55 82 299 
83 324 82 488 83 356 82 525 83 341 82 -132 83 266 82 -936 
83 239 82 -291 83 -515 82 -402 83 -546 82 -15 83 -266 82 -198 
82 29 83 -56 82 -85 83 6 82 -36 83 -26 82 33 83 42 
82 -5 5 -7 898 4406 67 MP stroke
/c9 { 0.000000 0.500000 0.000000 sr} bdef
c9
79 1 82 -9 83 -21 82 1 83 53 82 1 83 11 82 -12 
83 28 82 -1 83 37 82 27 82 32 83 13 82 49 83 95 
82 127 83 249 82 327 83 357 82 396 83 482 82 499 83 420 
82 320 83 150 82 -48 83 -262 82 -429 83 -512 82 -496 83 -493 
82 -429 83 -299 82 -145 82 -68 83 24 82 104 83 181 82 256 
83 304 82 398 83 407 82 316 83 271 82 13 83 -44 82 -171 
83 -248 82 -381 83 -303 82 -354 83 -348 82 -286 83 -199 82 -101 
82 -115 83 -61 82 -29 83 -39 82 -22 83 4 82 2 83 -12 
82 -4 5 1 898 4443 67 MP stroke
gr

6 w
c9
24 W
/c10 { 1.000000 0.000000 0.000000 sr} bdef
c10
3212 3983 PD
24 W
3295 4007 PD
24 W
3377 3939 PD
24 W
3459 3794 PD
24 W
3542 3495 PD
24 W
3624 3066 PD
24 W
3707 2573 PD
24 W
3789 2077 PD
24 W
3872 1565 PD
24 W
3954 1136 PD
24 W
4037 874 PD
24 W
4119 826 PD
24 W
4202 976 PD
24 W
4284 1296 PD
24 W
4367 1716 PD
24 W
4449 2215 PD
24 W
4532 2697 PD
24 W
4614 3093 PD
24 W
4697 3450 PD
24 W
4779 3777 PD
24 W
4862 4026 PD
24 W
4944 4153 PD
24 W
5027 4248 PD
24 W
5109 4297 PD
24 W
5192 4310 PD
24 W
5274 4342 PD
24 W
5356 4369 PD
24 W
5439 4406 PD
24 W
5521 4405 PD
24 W
5604 4433 PD
24 W
5686 4421 PD
gs 898 389 5362 4227 MR c np
gr

0 sg
%%IncludeResource: font Helvetica-Bold
/Helvetica-Bold /ISOLatin1Encoding 216 FMSR

2504 5064 mt 
(elution time seconds) s
 520 2752 mt  -90 rotate
(volts) s
90 rotate
1696  217 mt 
(Integration Region for Quantification) s
%%IncludeResource: font Helvetica
/Helvetica /ISOLatin1Encoding 120 FMSR

 881 4658 mt 
( ) s
6243  431 mt 
( ) s
36 w
1 sg
0 1062 1472 0 0 -1062 4514 1660 4 MP
PP
-1472 0 0 1062 1472 0 0 -1062 4514 1660 5 MP stroke
24 w
DO
SO
36 w
0 sg
4514 1660 mt 5986 1660 L
4514  598 mt 5986  598 L
4514 1660 mt 4514  598 L
5986 1660 mt 5986  598 L
4514 1660 mt 5986 1660 L
4514 1660 mt 4514  598 L
4514 1660 mt 5986 1660 L
4514  598 mt 5986  598 L
4514 1660 mt 4514  598 L
5986 1660 mt 5986  598 L
%%IncludeResource: font Helvetica
/Helvetica /ISOLatin1Encoding 216 FMSR

4982  866 mt 
(data) s
gs 4514 598 1473 1063 MR c np
6 w
c8
360 0 4586 788 2 MP stroke
gr

6 w
c8
0 sg
4982 1207 mt 
(smoothed) s
gs 4514 598 1473 1063 MR c np
c9
360 0 4586 1129 2 MP stroke
gr

c9
0 sg
4982 1547 mt 
(derivInds) s
gs 4514 598 1473 1063 MR c np
gs 4693 1396 147 147 MR c np
24 W
c10
4766 1469 PD
gr

c10
36 w
gr

36 w
c10
6 w

end %%Color Dict

eplot
%%EndObject

epage
end

showpage

%%Trailer
%%EOF
